PWD /Users/aaa/myfile/bitbucket/stackproject/AronModuleLib
INPUT /usr/local/texlive/2021/texmf.cnf
INPUT /usr/local/texlive/2021/texmf-dist/web2c/texmf.cnf
INPUT /usr/local/texlive/2021/texmf-var/web2c/pdftex/pdflatex.fmt
INPUT /Users/aaa/myfile/bitbucket/math/abc.tex
OUTPUT abc.log
INPUT /usr/local/texlive/2021/texmf-dist/tex/latex/base/article.cls
INPUT /usr/local/texlive/2021/texmf-dist/tex/latex/base/article.cls
INPUT /usr/local/texlive/2021/texmf-dist/tex/latex/base/article.cls
INPUT /usr/local/texlive/2021/texmf-dist/tex/latex/base/article.cls
INPUT /usr/local/texlive/2021/texmf-dist/tex/latex/base/article.cls
INPUT /usr/local/texlive/2021/texmf-dist/tex/latex/base/article.cls
INPUT /usr/local/texlive/2021/texmf-dist/tex/latex/base/article.cls
INPUT /usr/local/texlive/2021/texmf-dist/tex/latex/base/article.cls
INPUT /usr/local/texlive/2021/texmf-dist/tex/latex/base/article.cls
INPUT /usr/local/texlive/2021/texmf-dist/tex/latex/base/article.cls
INPUT /usr/local/texlive/2021/texmf-dist/tex/latex/base/article.cls
INPUT /usr/local/texlive/2021/texmf-dist/tex/latex/base/size10.clo
INPUT /usr/local/texlive/2021/texmf-dist/tex/latex/base/size10.clo
INPUT /usr/local/texlive/2021/texmf-dist/tex/latex/base/size10.clo
INPUT /usr/local/texlive/2021/texmf-dist/tex/latex/base/size10.clo
INPUT /usr/local/texlive/2021/texmf-dist/tex/latex/pagecolor/pagecolor.sty
INPUT /usr/local/texlive/2021/texmf-dist/tex/latex/pagecolor/pagecolor.sty
INPUT /usr/local/texlive/2021/texmf-dist/tex/latex/pagecolor/pagecolor.sty
INPUT /usr/local/texlive/2021/texmf-dist/tex/latex/pagecolor/pagecolor.sty
INPUT /usr/local/texlive/2021/texmf-dist/tex/latex/pagecolor/pagecolor.sty
INPUT /usr/local/texlive/2021/texmf-dist/tex/latex/pagecolor/pagecolor.sty
INPUT /usr/local/texlive/2021/texmf-dist/tex/latex/pagecolor/pagecolor.sty
INPUT /usr/local/texlive/2021/texmf-dist/tex/latex/pagecolor/pagecolor.sty
INPUT /usr/local/texlive/2021/texmf-dist/tex/latex/pagecolor/pagecolor.sty
INPUT /usr/local/texlive/2021/texmf-dist/tex/latex/pagecolor/pagecolor.sty
INPUT /usr/local/texlive/2021/texmf-dist/tex/latex/pagecolor/pagecolor.sty
INPUT /usr/local/texlive/2021/texmf-dist/tex/latex/kvoptions/kvoptions.sty
INPUT /usr/local/texlive/2021/texmf-dist/tex/latex/kvoptions/kvoptions.sty
INPUT /usr/local/texlive/2021/texmf-dist/tex/latex/kvoptions/kvoptions.sty
INPUT /usr/local/texlive/2021/texmf-dist/tex/latex/kvoptions/kvoptions.sty
INPUT /usr/local/texlive/2021/texmf-dist/tex/latex/kvoptions/kvoptions.sty
INPUT /usr/local/texlive/2021/texmf-dist/tex/latex/kvoptions/kvoptions.sty
INPUT /usr/local/texlive/2021/texmf-dist/tex/latex/kvoptions/kvoptions.sty
INPUT /usr/local/texlive/2021/texmf-dist/tex/latex/kvoptions/kvoptions.sty
INPUT /usr/local/texlive/2021/texmf-dist/tex/latex/kvoptions/kvoptions.sty
INPUT /usr/local/texlive/2021/texmf-dist/tex/latex/kvoptions/kvoptions.sty
INPUT /usr/local/texlive/2021/texmf-dist/tex/latex/kvoptions/kvoptions.sty
INPUT /usr/local/texlive/2021/texmf-dist/tex/latex/graphics/keyval.sty
INPUT /usr/local/texlive/2021/texmf-dist/tex/latex/graphics/keyval.sty
INPUT /usr/local/texlive/2021/texmf-dist/tex/latex/graphics/keyval.sty
INPUT /usr/local/texlive/2021/texmf-dist/tex/latex/graphics/keyval.sty
INPUT /usr/local/texlive/2021/texmf-dist/tex/latex/graphics/keyval.sty
INPUT /usr/local/texlive/2021/texmf-dist/tex/latex/graphics/keyval.sty
INPUT /usr/local/texlive/2021/texmf-dist/tex/latex/graphics/keyval.sty
INPUT /usr/local/texlive/2021/texmf-dist/tex/latex/graphics/keyval.sty
INPUT /usr/local/texlive/2021/texmf-dist/tex/latex/graphics/keyval.sty
INPUT /usr/local/texlive/2021/texmf-dist/tex/latex/graphics/keyval.sty
INPUT /usr/local/texlive/2021/texmf-dist/tex/latex/graphics/keyval.sty
INPUT /usr/local/texlive/2021/texmf-dist/tex/generic/ltxcmds/ltxcmds.sty
INPUT /usr/local/texlive/2021/texmf-dist/tex/generic/ltxcmds/ltxcmds.sty
INPUT /usr/local/texlive/2021/texmf-dist/tex/generic/ltxcmds/ltxcmds.sty
INPUT /usr/local/texlive/2021/texmf-dist/tex/generic/ltxcmds/ltxcmds.sty
INPUT /usr/local/texlive/2021/texmf-dist/tex/generic/ltxcmds/ltxcmds.sty
INPUT /usr/local/texlive/2021/texmf-dist/tex/generic/ltxcmds/ltxcmds.sty
INPUT /usr/local/texlive/2021/texmf-dist/tex/generic/ltxcmds/ltxcmds.sty
INPUT /usr/local/texlive/2021/texmf-dist/tex/generic/ltxcmds/ltxcmds.sty
INPUT /usr/local/texlive/2021/texmf-dist/tex/generic/ltxcmds/ltxcmds.sty
INPUT /usr/local/texlive/2021/texmf-dist/tex/generic/ltxcmds/ltxcmds.sty
INPUT /usr/local/texlive/2021/texmf-dist/tex/generic/ltxcmds/ltxcmds.sty
INPUT /usr/local/texlive/2021/texmf-dist/tex/generic/kvsetkeys/kvsetkeys.sty
INPUT /usr/local/texlive/2021/texmf-dist/tex/generic/kvsetkeys/kvsetkeys.sty
INPUT /usr/local/texlive/2021/texmf-dist/tex/generic/kvsetkeys/kvsetkeys.sty
INPUT /usr/local/texlive/2021/texmf-dist/tex/generic/kvsetkeys/kvsetkeys.sty
INPUT /usr/local/texlive/2021/texmf-dist/tex/generic/kvsetkeys/kvsetkeys.sty
INPUT /usr/local/texlive/2021/texmf-dist/tex/generic/kvsetkeys/kvsetkeys.sty
INPUT /usr/local/texlive/2021/texmf-dist/tex/generic/kvsetkeys/kvsetkeys.sty
INPUT /usr/local/texlive/2021/texmf-dist/tex/generic/kvsetkeys/kvsetkeys.sty
INPUT /usr/local/texlive/2021/texmf-dist/tex/generic/kvsetkeys/kvsetkeys.sty
INPUT /usr/local/texlive/2021/texmf-dist/tex/generic/kvsetkeys/kvsetkeys.sty
INPUT /usr/local/texlive/2021/texmf-dist/tex/generic/kvsetkeys/kvsetkeys.sty
INPUT /usr/local/texlive/2021/texmf-dist/tex/latex/xcolor/xcolor.sty
INPUT /usr/local/texlive/2021/texmf-dist/tex/latex/xcolor/xcolor.sty
INPUT /usr/local/texlive/2021/texmf-dist/tex/latex/xcolor/xcolor.sty
INPUT /usr/local/texlive/2021/texmf-dist/tex/latex/xcolor/xcolor.sty
INPUT /usr/local/texlive/2021/texmf-dist/tex/latex/xcolor/xcolor.sty
INPUT /usr/local/texlive/2021/texmf-dist/tex/latex/xcolor/xcolor.sty
INPUT /usr/local/texlive/2021/texmf-dist/tex/latex/xcolor/xcolor.sty
INPUT /usr/local/texlive/2021/texmf-dist/tex/latex/xcolor/xcolor.sty
INPUT /usr/local/texlive/2021/texmf-dist/tex/latex/xcolor/xcolor.sty
INPUT /usr/local/texlive/2021/texmf-dist/tex/latex/xcolor/xcolor.sty
INPUT /usr/local/texlive/2021/texmf-dist/tex/latex/xcolor/xcolor.sty
INPUT /usr/local/texlive/2021/texmf-dist/tex/latex/graphics-cfg/color.cfg
INPUT /usr/local/texlive/2021/texmf-dist/tex/latex/graphics-cfg/color.cfg
INPUT /usr/local/texlive/2021/texmf-dist/tex/latex/graphics-cfg/color.cfg
INPUT /usr/local/texlive/2021/texmf-dist/tex/latex/graphics-cfg/color.cfg
INPUT /usr/local/texlive/2021/texmf-dist/tex/latex/graphics-def/pdftex.def
INPUT /usr/local/texlive/2021/texmf-dist/tex/latex/graphics-def/pdftex.def
INPUT /usr/local/texlive/2021/texmf-dist/tex/latex/graphics-def/pdftex.def
INPUT /usr/local/texlive/2021/texmf-dist/tex/latex/graphics-def/pdftex.def
INPUT /usr/local/texlive/2021/texmf-dist/tex/generic/iftex/ifpdf.sty
INPUT /usr/local/texlive/2021/texmf-dist/tex/generic/iftex/ifpdf.sty
INPUT /usr/local/texlive/2021/texmf-dist/tex/generic/iftex/ifpdf.sty
INPUT /usr/local/texlive/2021/texmf-dist/tex/generic/iftex/ifpdf.sty
INPUT /usr/local/texlive/2021/texmf-dist/tex/generic/iftex/ifpdf.sty
INPUT /usr/local/texlive/2021/texmf-dist/tex/generic/iftex/ifpdf.sty
INPUT /usr/local/texlive/2021/texmf-dist/tex/generic/iftex/ifpdf.sty
INPUT /usr/local/texlive/2021/texmf-dist/tex/generic/iftex/ifpdf.sty
INPUT /usr/local/texlive/2021/texmf-dist/tex/generic/iftex/ifpdf.sty
INPUT /usr/local/texlive/2021/texmf-dist/tex/generic/iftex/ifpdf.sty
INPUT /usr/local/texlive/2021/texmf-dist/tex/generic/iftex/ifpdf.sty
INPUT /usr/local/texlive/2021/texmf-dist/tex/generic/iftex/iftex.sty
INPUT /usr/local/texlive/2021/texmf-dist/tex/generic/iftex/iftex.sty
INPUT /usr/local/texlive/2021/texmf-dist/tex/generic/iftex/iftex.sty
INPUT /usr/local/texlive/2021/texmf-dist/tex/generic/iftex/iftex.sty
INPUT /usr/local/texlive/2021/texmf-dist/tex/generic/iftex/iftex.sty
INPUT /usr/local/texlive/2021/texmf-dist/tex/generic/iftex/iftex.sty
INPUT /usr/local/texlive/2021/texmf-dist/tex/generic/iftex/iftex.sty
INPUT /usr/local/texlive/2021/texmf-dist/tex/generic/iftex/iftex.sty
INPUT /usr/local/texlive/2021/texmf-dist/tex/generic/iftex/iftex.sty
INPUT /usr/local/texlive/2021/texmf-dist/tex/generic/iftex/iftex.sty
INPUT /usr/local/texlive/2021/texmf-dist/tex/generic/iftex/iftex.sty
INPUT /usr/local/texlive/2021/texmf-dist/tex/generic/iftex/ifluatex.sty
INPUT /usr/local/texlive/2021/texmf-dist/tex/generic/iftex/ifluatex.sty
INPUT /usr/local/texlive/2021/texmf-dist/tex/generic/iftex/ifluatex.sty
INPUT /usr/local/texlive/2021/texmf-dist/tex/generic/iftex/ifluatex.sty
INPUT /usr/local/texlive/2021/texmf-dist/tex/generic/iftex/ifluatex.sty
INPUT /usr/local/texlive/2021/texmf-dist/tex/generic/iftex/ifluatex.sty
INPUT /usr/local/texlive/2021/texmf-dist/tex/generic/iftex/ifluatex.sty
INPUT /usr/local/texlive/2021/texmf-dist/tex/generic/iftex/ifluatex.sty
INPUT /usr/local/texlive/2021/texmf-dist/tex/generic/iftex/ifluatex.sty
INPUT /usr/local/texlive/2021/texmf-dist/tex/generic/iftex/ifluatex.sty
INPUT /usr/local/texlive/2021/texmf-dist/tex/generic/iftex/ifluatex.sty
INPUT /usr/local/texlive/2021/texmf-dist/tex/generic/iftex/iftex.sty
INPUT /usr/local/texlive/2021/texmf-dist/tex/latex/lipsum/lipsum.sty
INPUT /usr/local/texlive/2021/texmf-dist/tex/latex/lipsum/lipsum.sty
INPUT /usr/local/texlive/2021/texmf-dist/tex/latex/lipsum/lipsum.sty
INPUT /usr/local/texlive/2021/texmf-dist/tex/latex/lipsum/lipsum.sty
INPUT /usr/local/texlive/2021/texmf-dist/tex/latex/lipsum/lipsum.sty
INPUT /usr/local/texlive/2021/texmf-dist/tex/latex/lipsum/lipsum.sty
INPUT /usr/local/texlive/2021/texmf-dist/tex/latex/lipsum/lipsum.sty
INPUT /usr/local/texlive/2021/texmf-dist/tex/latex/lipsum/lipsum.sty
INPUT /usr/local/texlive/2021/texmf-dist/tex/latex/lipsum/lipsum.sty
INPUT /usr/local/texlive/2021/texmf-dist/tex/latex/lipsum/lipsum.sty
INPUT /usr/local/texlive/2021/texmf-dist/tex/latex/lipsum/lipsum.sty
INPUT /usr/local/texlive/2021/texmf-dist/tex/latex/l3kernel/expl3.sty
INPUT /usr/local/texlive/2021/texmf-dist/tex/latex/l3kernel/expl3.sty
INPUT /usr/local/texlive/2021/texmf-dist/tex/latex/l3kernel/expl3.sty
INPUT /usr/local/texlive/2021/texmf-dist/tex/latex/l3kernel/expl3.sty
INPUT /usr/local/texlive/2021/texmf-dist/tex/latex/l3kernel/expl3.sty
INPUT /usr/local/texlive/2021/texmf-dist/tex/latex/l3kernel/expl3.sty
INPUT /usr/local/texlive/2021/texmf-dist/tex/latex/l3kernel/expl3.sty
INPUT /usr/local/texlive/2021/texmf-dist/tex/latex/l3kernel/expl3.sty
INPUT /usr/local/texlive/2021/texmf-dist/tex/latex/l3kernel/expl3.sty
INPUT /usr/local/texlive/2021/texmf-dist/tex/latex/l3kernel/expl3.sty
INPUT /usr/local/texlive/2021/texmf-dist/tex/latex/l3kernel/expl3.sty
INPUT /usr/local/texlive/2021/texmf-dist/tex/latex/l3backend/l3backend-pdftex.def
INPUT /usr/local/texlive/2021/texmf-dist/tex/latex/l3backend/l3backend-pdftex.def
INPUT /usr/local/texlive/2021/texmf-dist/tex/latex/l3backend/l3backend-pdftex.def
INPUT /usr/local/texlive/2021/texmf-dist/tex/latex/l3backend/l3backend-pdftex.def
INPUT /usr/local/texlive/2021/texmf-dist/tex/latex/l3backend/l3backend-pdftex.def
INPUT /usr/local/texlive/2021/texmf-dist/tex/latex/l3backend/l3backend-pdftex.def
INPUT /usr/local/texlive/2021/texmf-dist/tex/latex/l3backend/l3backend-pdftex.def
INPUT /usr/local/texlive/2021/texmf-dist/tex/latex/l3backend/l3backend-pdftex.def
INPUT /usr/local/texlive/2021/texmf-dist/tex/latex/l3backend/l3backend-pdftex.def
INPUT /usr/local/texlive/2021/texmf-dist/tex/latex/l3backend/l3backend-pdftex.def
INPUT /usr/local/texlive/2021/texmf-dist/tex/latex/l3backend/l3backend-pdftex.def
INPUT /usr/local/texlive/2021/texmf-dist/tex/latex/l3packages/xparse/xparse.sty
INPUT /usr/local/texlive/2021/texmf-dist/tex/latex/l3packages/xparse/xparse.sty
INPUT /usr/local/texlive/2021/texmf-dist/tex/latex/l3packages/xparse/xparse.sty
INPUT /usr/local/texlive/2021/texmf-dist/tex/latex/l3packages/xparse/xparse.sty
INPUT /usr/local/texlive/2021/texmf-dist/tex/latex/l3packages/xparse/xparse.sty
INPUT /usr/local/texlive/2021/texmf-dist/tex/latex/l3packages/xparse/xparse.sty
INPUT /usr/local/texlive/2021/texmf-dist/tex/latex/l3packages/xparse/xparse.sty
INPUT /usr/local/texlive/2021/texmf-dist/tex/latex/l3packages/xparse/xparse.sty
INPUT /usr/local/texlive/2021/texmf-dist/tex/latex/l3packages/xparse/xparse.sty
INPUT /usr/local/texlive/2021/texmf-dist/tex/latex/l3packages/xparse/xparse.sty
INPUT /usr/local/texlive/2021/texmf-dist/tex/latex/l3packages/xparse/xparse.sty
INPUT /usr/local/texlive/2021/texmf-dist/tex/latex/l3kernel/expl3.sty
INPUT /usr/local/texlive/2021/texmf-dist/tex/latex/l3packages/xparse/xparse-2020-10-01.sty
INPUT /usr/local/texlive/2021/texmf-dist/tex/latex/l3packages/xparse/xparse-2020-10-01.sty
INPUT /usr/local/texlive/2021/texmf-dist/tex/latex/l3packages/xparse/xparse-2020-10-01.sty
INPUT /usr/local/texlive/2021/texmf-dist/tex/latex/l3packages/xparse/xparse-2020-10-01.sty
INPUT /usr/local/texlive/2021/texmf-dist/tex/latex/l3packages/xparse/xparse-2020-10-01.sty
INPUT /usr/local/texlive/2021/texmf-dist/tex/latex/l3packages/xparse/xparse-2020-10-01.sty
INPUT /usr/local/texlive/2021/texmf-dist/tex/latex/l3packages/xparse/xparse-2020-10-01.sty
INPUT /usr/local/texlive/2021/texmf-dist/tex/latex/l3packages/xparse/xparse-2020-10-01.sty
INPUT /usr/local/texlive/2021/texmf-dist/tex/latex/l3packages/xparse/xparse-2020-10-01.sty
INPUT /usr/local/texlive/2021/texmf-dist/tex/latex/l3packages/xparse/xparse-2020-10-01.sty
INPUT /usr/local/texlive/2021/texmf-dist/tex/latex/l3packages/xparse/xparse-2020-10-01.sty
INPUT /usr/local/texlive/2021/texmf-dist/tex/latex/l3kernel/expl3.sty
INPUT /usr/local/texlive/2021/texmf-dist/tex/latex/l3packages/xparse/xparse-generic.tex
INPUT /usr/local/texlive/2021/texmf-dist/tex/latex/lipsum/lipsum.ltd.tex
INPUT /usr/local/texlive/2021/texmf-dist/tex/latex/lipsum/lipsum.ltd.tex
INPUT /usr/local/texlive/2021/texmf-dist/tex/latex/amsmath/amsmath.sty
INPUT /usr/local/texlive/2021/texmf-dist/tex/latex/amsmath/amsmath.sty
INPUT /usr/local/texlive/2021/texmf-dist/tex/latex/amsmath/amsmath.sty
INPUT /usr/local/texlive/2021/texmf-dist/tex/latex/amsmath/amsmath.sty
INPUT /usr/local/texlive/2021/texmf-dist/tex/latex/amsmath/amsmath.sty
INPUT /usr/local/texlive/2021/texmf-dist/tex/latex/amsmath/amsmath.sty
INPUT /usr/local/texlive/2021/texmf-dist/tex/latex/amsmath/amsmath.sty
INPUT /usr/local/texlive/2021/texmf-dist/tex/latex/amsmath/amsmath.sty
INPUT /usr/local/texlive/2021/texmf-dist/tex/latex/amsmath/amsmath.sty
INPUT /usr/local/texlive/2021/texmf-dist/tex/latex/amsmath/amsmath.sty
INPUT /usr/local/texlive/2021/texmf-dist/tex/latex/amsmath/amsmath.sty
INPUT /usr/local/texlive/2021/texmf-dist/tex/latex/amsmath/amsopn.sty
INPUT /usr/local/texlive/2021/texmf-dist/tex/latex/amsmath/amsopn.sty
INPUT /usr/local/texlive/2021/texmf-dist/tex/latex/amsmath/amstext.sty
INPUT /usr/local/texlive/2021/texmf-dist/tex/latex/amsmath/amstext.sty
INPUT /usr/local/texlive/2021/texmf-dist/tex/latex/amsmath/amstext.sty
INPUT /usr/local/texlive/2021/texmf-dist/tex/latex/amsmath/amstext.sty
INPUT /usr/local/texlive/2021/texmf-dist/tex/latex/amsmath/amstext.sty
INPUT /usr/local/texlive/2021/texmf-dist/tex/latex/amsmath/amstext.sty
INPUT /usr/local/texlive/2021/texmf-dist/tex/latex/amsmath/amstext.sty
INPUT /usr/local/texlive/2021/texmf-dist/tex/latex/amsmath/amstext.sty
INPUT /usr/local/texlive/2021/texmf-dist/tex/latex/amsmath/amstext.sty
INPUT /usr/local/texlive/2021/texmf-dist/tex/latex/amsmath/amstext.sty
INPUT /usr/local/texlive/2021/texmf-dist/tex/latex/amsmath/amstext.sty
INPUT /usr/local/texlive/2021/texmf-dist/tex/latex/amsmath/amsgen.sty
INPUT /usr/local/texlive/2021/texmf-dist/tex/latex/amsmath/amsgen.sty
INPUT /usr/local/texlive/2021/texmf-dist/tex/latex/amsmath/amsgen.sty
INPUT /usr/local/texlive/2021/texmf-dist/tex/latex/amsmath/amsgen.sty
INPUT /usr/local/texlive/2021/texmf-dist/tex/latex/amsmath/amsgen.sty
INPUT /usr/local/texlive/2021/texmf-dist/tex/latex/amsmath/amsgen.sty
INPUT /usr/local/texlive/2021/texmf-dist/tex/latex/amsmath/amsgen.sty
INPUT /usr/local/texlive/2021/texmf-dist/tex/latex/amsmath/amsgen.sty
INPUT /usr/local/texlive/2021/texmf-dist/tex/latex/amsmath/amsgen.sty
INPUT /usr/local/texlive/2021/texmf-dist/tex/latex/amsmath/amsgen.sty
INPUT /usr/local/texlive/2021/texmf-dist/tex/latex/amsmath/amsgen.sty
INPUT /usr/local/texlive/2021/texmf-dist/tex/latex/amsmath/amsbsy.sty
INPUT /usr/local/texlive/2021/texmf-dist/tex/latex/amsmath/amsbsy.sty
INPUT /usr/local/texlive/2021/texmf-dist/tex/latex/amsmath/amsbsy.sty
INPUT /usr/local/texlive/2021/texmf-dist/tex/latex/amsmath/amsbsy.sty
INPUT /usr/local/texlive/2021/texmf-dist/tex/latex/amsmath/amsbsy.sty
INPUT /usr/local/texlive/2021/texmf-dist/tex/latex/amsmath/amsbsy.sty
INPUT /usr/local/texlive/2021/texmf-dist/tex/latex/amsmath/amsbsy.sty
INPUT /usr/local/texlive/2021/texmf-dist/tex/latex/amsmath/amsbsy.sty
INPUT /usr/local/texlive/2021/texmf-dist/tex/latex/amsmath/amsbsy.sty
INPUT /usr/local/texlive/2021/texmf-dist/tex/latex/amsmath/amsbsy.sty
INPUT /usr/local/texlive/2021/texmf-dist/tex/latex/amsmath/amsbsy.sty
INPUT /usr/local/texlive/2021/texmf-dist/tex/latex/amsmath/amsgen.sty
INPUT /usr/local/texlive/2021/texmf-dist/tex/latex/amsmath/amsopn.sty
INPUT /usr/local/texlive/2021/texmf-dist/tex/latex/amsmath/amsopn.sty
INPUT /usr/local/texlive/2021/texmf-dist/tex/latex/amsmath/amsopn.sty
INPUT /usr/local/texlive/2021/texmf-dist/tex/latex/amsmath/amsopn.sty
INPUT /usr/local/texlive/2021/texmf-dist/tex/latex/amsmath/amsopn.sty
INPUT /usr/local/texlive/2021/texmf-dist/tex/latex/amsmath/amsopn.sty
INPUT /usr/local/texlive/2021/texmf-dist/tex/latex/amsmath/amsopn.sty
INPUT /usr/local/texlive/2021/texmf-dist/tex/latex/amsmath/amsopn.sty
INPUT /usr/local/texlive/2021/texmf-dist/tex/latex/amsmath/amsopn.sty
INPUT /usr/local/texlive/2021/texmf-dist/tex/latex/amsmath/amsopn.sty
INPUT /usr/local/texlive/2021/texmf-dist/tex/latex/amsmath/amsopn.sty
INPUT /usr/local/texlive/2021/texmf-dist/tex/latex/amsmath/amsgen.sty
INPUT /usr/local/texlive/2021/texmf-dist/tex/latex/amsfonts/amsfonts.sty
INPUT /usr/local/texlive/2021/texmf-dist/tex/latex/amsfonts/amsfonts.sty
INPUT /usr/local/texlive/2021/texmf-dist/tex/latex/amsfonts/amsfonts.sty
INPUT /usr/local/texlive/2021/texmf-dist/tex/latex/amsfonts/amsfonts.sty
INPUT /usr/local/texlive/2021/texmf-dist/tex/latex/amsfonts/amsfonts.sty
INPUT /usr/local/texlive/2021/texmf-dist/tex/latex/amsfonts/amsfonts.sty
INPUT /usr/local/texlive/2021/texmf-dist/tex/latex/amsfonts/amsfonts.sty
INPUT /usr/local/texlive/2021/texmf-dist/tex/latex/amsfonts/amsfonts.sty
INPUT /usr/local/texlive/2021/texmf-dist/tex/latex/amsfonts/amsfonts.sty
INPUT /usr/local/texlive/2021/texmf-dist/tex/latex/amsfonts/amsfonts.sty
INPUT /usr/local/texlive/2021/texmf-dist/tex/latex/amsfonts/amsfonts.sty
INPUT /usr/local/texlive/2021/texmf-dist/tex/latex/amsfonts/amssymb.sty
INPUT /usr/local/texlive/2021/texmf-dist/tex/latex/amsfonts/amssymb.sty
INPUT /usr/local/texlive/2021/texmf-dist/tex/latex/amsfonts/amssymb.sty
INPUT /usr/local/texlive/2021/texmf-dist/tex/latex/amsfonts/amssymb.sty
INPUT /usr/local/texlive/2021/texmf-dist/tex/latex/amsfonts/amssymb.sty
INPUT /usr/local/texlive/2021/texmf-dist/tex/latex/amsfonts/amssymb.sty
INPUT /usr/local/texlive/2021/texmf-dist/tex/latex/amsfonts/amssymb.sty
INPUT /usr/local/texlive/2021/texmf-dist/tex/latex/amsfonts/amssymb.sty
INPUT /usr/local/texlive/2021/texmf-dist/tex/latex/amsfonts/amssymb.sty
INPUT /usr/local/texlive/2021/texmf-dist/tex/latex/amsfonts/amssymb.sty
INPUT /usr/local/texlive/2021/texmf-dist/tex/latex/amsfonts/amssymb.sty
INPUT /usr/local/texlive/2021/texmf-dist/tex/latex/amsfonts/amsfonts.sty
INPUT /usr/local/texlive/2021/texmf-dist/tex/latex/amscls/amsthm.sty
INPUT /usr/local/texlive/2021/texmf-dist/tex/latex/amscls/amsthm.sty
INPUT /usr/local/texlive/2021/texmf-dist/tex/latex/amscls/amsthm.sty
INPUT /usr/local/texlive/2021/texmf-dist/tex/latex/amscls/amsthm.sty
INPUT /usr/local/texlive/2021/texmf-dist/tex/latex/amscls/amsthm.sty
INPUT /usr/local/texlive/2021/texmf-dist/tex/latex/amscls/amsthm.sty
INPUT /usr/local/texlive/2021/texmf-dist/tex/latex/amscls/amsthm.sty
INPUT /usr/local/texlive/2021/texmf-dist/tex/latex/amscls/amsthm.sty
INPUT /usr/local/texlive/2021/texmf-dist/tex/latex/amscls/amsthm.sty
INPUT /usr/local/texlive/2021/texmf-dist/tex/latex/amscls/amsthm.sty
INPUT /usr/local/texlive/2021/texmf-dist/tex/latex/amscls/amsthm.sty
INPUT /usr/local/texlive/2021/texmf-dist/tex/latex/oberdiek/centernot.sty
INPUT /usr/local/texlive/2021/texmf-dist/tex/latex/oberdiek/centernot.sty
INPUT /usr/local/texlive/2021/texmf-dist/tex/latex/oberdiek/centernot.sty
INPUT /usr/local/texlive/2021/texmf-dist/tex/latex/oberdiek/centernot.sty
INPUT /usr/local/texlive/2021/texmf-dist/tex/latex/oberdiek/centernot.sty
INPUT /usr/local/texlive/2021/texmf-dist/tex/latex/oberdiek/centernot.sty
INPUT /usr/local/texlive/2021/texmf-dist/tex/latex/oberdiek/centernot.sty
INPUT /usr/local/texlive/2021/texmf-dist/tex/latex/oberdiek/centernot.sty
INPUT /usr/local/texlive/2021/texmf-dist/tex/latex/oberdiek/centernot.sty
INPUT /usr/local/texlive/2021/texmf-dist/tex/latex/oberdiek/centernot.sty
INPUT /usr/local/texlive/2021/texmf-dist/tex/latex/oberdiek/centernot.sty
INPUT /usr/local/texlive/2021/texmf-dist/tex/latex/xcolor/xcolor.sty
INPUT /usr/local/texlive/2021/texmf-dist/tex/latex/colortbl/colortbl.sty
INPUT /usr/local/texlive/2021/texmf-dist/tex/latex/colortbl/colortbl.sty
INPUT /usr/local/texlive/2021/texmf-dist/tex/latex/colortbl/colortbl.sty
INPUT /usr/local/texlive/2021/texmf-dist/tex/latex/colortbl/colortbl.sty
INPUT /usr/local/texlive/2021/texmf-dist/tex/latex/colortbl/colortbl.sty
INPUT /usr/local/texlive/2021/texmf-dist/tex/latex/colortbl/colortbl.sty
INPUT /usr/local/texlive/2021/texmf-dist/tex/latex/colortbl/colortbl.sty
INPUT /usr/local/texlive/2021/texmf-dist/tex/latex/colortbl/colortbl.sty
INPUT /usr/local/texlive/2021/texmf-dist/tex/latex/colortbl/colortbl.sty
INPUT /usr/local/texlive/2021/texmf-dist/tex/latex/colortbl/colortbl.sty
INPUT /usr/local/texlive/2021/texmf-dist/tex/latex/colortbl/colortbl.sty
INPUT /usr/local/texlive/2021/texmf-dist/tex/latex/tools/array.sty
INPUT /usr/local/texlive/2021/texmf-dist/tex/latex/tools/array.sty
INPUT /usr/local/texlive/2021/texmf-dist/tex/latex/tools/array.sty
INPUT /usr/local/texlive/2021/texmf-dist/tex/latex/tools/array.sty
INPUT /usr/local/texlive/2021/texmf-dist/tex/latex/tools/array.sty
INPUT /usr/local/texlive/2021/texmf-dist/tex/latex/tools/array.sty
INPUT /usr/local/texlive/2021/texmf-dist/tex/latex/tools/array.sty
INPUT /usr/local/texlive/2021/texmf-dist/tex/latex/tools/array.sty
INPUT /usr/local/texlive/2021/texmf-dist/tex/latex/tools/array.sty
INPUT /usr/local/texlive/2021/texmf-dist/tex/latex/tools/array.sty
INPUT /usr/local/texlive/2021/texmf-dist/tex/latex/tools/array.sty
INPUT /usr/local/texlive/2021/texmf-dist/tex/latex/graphics/color.sty
INPUT /usr/local/texlive/2021/texmf-dist/tex/latex/graphics/graphicx.sty
INPUT /usr/local/texlive/2021/texmf-dist/tex/latex/graphics/graphicx.sty
INPUT /usr/local/texlive/2021/texmf-dist/tex/latex/graphics/graphicx.sty
INPUT /usr/local/texlive/2021/texmf-dist/tex/latex/graphics/graphicx.sty
INPUT /usr/local/texlive/2021/texmf-dist/tex/latex/graphics/graphicx.sty
INPUT /usr/local/texlive/2021/texmf-dist/tex/latex/graphics/graphicx.sty
INPUT /usr/local/texlive/2021/texmf-dist/tex/latex/graphics/graphicx.sty
INPUT /usr/local/texlive/2021/texmf-dist/tex/latex/graphics/graphicx.sty
INPUT /usr/local/texlive/2021/texmf-dist/tex/latex/graphics/graphicx.sty
INPUT /usr/local/texlive/2021/texmf-dist/tex/latex/graphics/graphicx.sty
INPUT /usr/local/texlive/2021/texmf-dist/tex/latex/graphics/graphicx.sty
INPUT /usr/local/texlive/2021/texmf-dist/tex/latex/graphics/keyval.sty
INPUT /usr/local/texlive/2021/texmf-dist/tex/latex/graphics/graphics.sty
INPUT /usr/local/texlive/2021/texmf-dist/tex/latex/graphics/graphics.sty
INPUT /usr/local/texlive/2021/texmf-dist/tex/latex/graphics/graphics.sty
INPUT /usr/local/texlive/2021/texmf-dist/tex/latex/graphics/graphics.sty
INPUT /usr/local/texlive/2021/texmf-dist/tex/latex/graphics/graphics.sty
INPUT /usr/local/texlive/2021/texmf-dist/tex/latex/graphics/graphics.sty
INPUT /usr/local/texlive/2021/texmf-dist/tex/latex/graphics/graphics.sty
INPUT /usr/local/texlive/2021/texmf-dist/tex/latex/graphics/graphics.sty
INPUT /usr/local/texlive/2021/texmf-dist/tex/latex/graphics/graphics.sty
INPUT /usr/local/texlive/2021/texmf-dist/tex/latex/graphics/graphics.sty
INPUT /usr/local/texlive/2021/texmf-dist/tex/latex/graphics/graphics.sty
INPUT /usr/local/texlive/2021/texmf-dist/tex/latex/graphics/trig.sty
INPUT /usr/local/texlive/2021/texmf-dist/tex/latex/graphics/trig.sty
INPUT /usr/local/texlive/2021/texmf-dist/tex/latex/graphics/trig.sty
INPUT /usr/local/texlive/2021/texmf-dist/tex/latex/graphics/trig.sty
INPUT /usr/local/texlive/2021/texmf-dist/tex/latex/graphics/trig.sty
INPUT /usr/local/texlive/2021/texmf-dist/tex/latex/graphics/trig.sty
INPUT /usr/local/texlive/2021/texmf-dist/tex/latex/graphics/trig.sty
INPUT /usr/local/texlive/2021/texmf-dist/tex/latex/graphics/trig.sty
INPUT /usr/local/texlive/2021/texmf-dist/tex/latex/graphics/trig.sty
INPUT /usr/local/texlive/2021/texmf-dist/tex/latex/graphics/trig.sty
INPUT /usr/local/texlive/2021/texmf-dist/tex/latex/graphics/trig.sty
INPUT /usr/local/texlive/2021/texmf-dist/tex/latex/graphics-cfg/graphics.cfg
INPUT /usr/local/texlive/2021/texmf-dist/tex/latex/graphics-cfg/graphics.cfg
INPUT /usr/local/texlive/2021/texmf-dist/tex/latex/graphics-cfg/graphics.cfg
INPUT /usr/local/texlive/2021/texmf-dist/tex/latex/graphics-cfg/graphics.cfg
INPUT /usr/local/texlive/2021/texmf-dist/tex/latex/svg/svg.sty
INPUT /usr/local/texlive/2021/texmf-dist/tex/latex/svg/svg.sty
INPUT /usr/local/texlive/2021/texmf-dist/tex/latex/svg/svg.sty
INPUT /usr/local/texlive/2021/texmf-dist/tex/latex/svg/svg.sty
INPUT /usr/local/texlive/2021/texmf-dist/tex/latex/svg/svg.sty
INPUT /usr/local/texlive/2021/texmf-dist/tex/latex/svg/svg.sty
INPUT /usr/local/texlive/2021/texmf-dist/tex/latex/svg/svg.sty
INPUT /usr/local/texlive/2021/texmf-dist/tex/latex/svg/svg.sty
INPUT /usr/local/texlive/2021/texmf-dist/tex/latex/svg/svg.sty
INPUT /usr/local/texlive/2021/texmf-dist/tex/latex/svg/svg.sty
INPUT /usr/local/texlive/2021/texmf-dist/tex/latex/svg/svg.sty
INPUT /usr/local/texlive/2021/texmf-dist/tex/generic/iftex/iftex.sty
INPUT /usr/local/texlive/2021/texmf-dist/tex/latex/koma-script/scrbase.sty
INPUT /usr/local/texlive/2021/texmf-dist/tex/latex/koma-script/scrbase.sty
INPUT /usr/local/texlive/2021/texmf-dist/tex/latex/koma-script/scrbase.sty
INPUT /usr/local/texlive/2021/texmf-dist/tex/latex/koma-script/scrbase.sty
INPUT /usr/local/texlive/2021/texmf-dist/tex/latex/koma-script/scrbase.sty
INPUT /usr/local/texlive/2021/texmf-dist/tex/latex/koma-script/scrbase.sty
INPUT /usr/local/texlive/2021/texmf-dist/tex/latex/koma-script/scrbase.sty
INPUT /usr/local/texlive/2021/texmf-dist/tex/latex/koma-script/scrbase.sty
INPUT /usr/local/texlive/2021/texmf-dist/tex/latex/koma-script/scrbase.sty
INPUT /usr/local/texlive/2021/texmf-dist/tex/latex/koma-script/scrbase.sty
INPUT /usr/local/texlive/2021/texmf-dist/tex/latex/koma-script/scrbase.sty
INPUT /usr/local/texlive/2021/texmf-dist/tex/latex/koma-script/scrlfile.sty
INPUT /usr/local/texlive/2021/texmf-dist/tex/latex/koma-script/scrlfile.sty
INPUT /usr/local/texlive/2021/texmf-dist/tex/latex/koma-script/scrlfile.sty
INPUT /usr/local/texlive/2021/texmf-dist/tex/latex/koma-script/scrlfile.sty
INPUT /usr/local/texlive/2021/texmf-dist/tex/latex/koma-script/scrlfile.sty
INPUT /usr/local/texlive/2021/texmf-dist/tex/latex/koma-script/scrlfile.sty
INPUT /usr/local/texlive/2021/texmf-dist/tex/latex/koma-script/scrlfile.sty
INPUT /usr/local/texlive/2021/texmf-dist/tex/latex/koma-script/scrlfile.sty
INPUT /usr/local/texlive/2021/texmf-dist/tex/latex/koma-script/scrlfile.sty
INPUT /usr/local/texlive/2021/texmf-dist/tex/latex/koma-script/scrlfile.sty
INPUT /usr/local/texlive/2021/texmf-dist/tex/latex/koma-script/scrlfile.sty
INPUT /usr/local/texlive/2021/texmf-dist/tex/latex/koma-script/scrlfile-hook.sty
INPUT /usr/local/texlive/2021/texmf-dist/tex/latex/koma-script/scrlfile-hook.sty
INPUT /usr/local/texlive/2021/texmf-dist/tex/latex/koma-script/scrlfile-hook.sty
INPUT /usr/local/texlive/2021/texmf-dist/tex/latex/koma-script/scrlfile-hook.sty
INPUT /usr/local/texlive/2021/texmf-dist/tex/latex/koma-script/scrlfile-hook.sty
INPUT /usr/local/texlive/2021/texmf-dist/tex/latex/koma-script/scrlfile-hook.sty
INPUT /usr/local/texlive/2021/texmf-dist/tex/latex/koma-script/scrlfile-hook.sty
INPUT /usr/local/texlive/2021/texmf-dist/tex/latex/koma-script/scrlfile-hook.sty
INPUT /usr/local/texlive/2021/texmf-dist/tex/latex/koma-script/scrlfile-hook.sty
INPUT /usr/local/texlive/2021/texmf-dist/tex/latex/koma-script/scrlfile-hook.sty
INPUT /usr/local/texlive/2021/texmf-dist/tex/latex/koma-script/scrlfile-hook.sty
INPUT /usr/local/texlive/2021/texmf-dist/tex/latex/koma-script/scrlogo.sty
INPUT /usr/local/texlive/2021/texmf-dist/tex/latex/koma-script/scrlogo.sty
INPUT /usr/local/texlive/2021/texmf-dist/tex/latex/koma-script/scrlogo.sty
INPUT /usr/local/texlive/2021/texmf-dist/tex/latex/koma-script/scrlogo.sty
INPUT /usr/local/texlive/2021/texmf-dist/tex/latex/koma-script/scrlogo.sty
INPUT /usr/local/texlive/2021/texmf-dist/tex/latex/koma-script/scrlogo.sty
INPUT /usr/local/texlive/2021/texmf-dist/tex/latex/koma-script/scrlogo.sty
INPUT /usr/local/texlive/2021/texmf-dist/tex/latex/koma-script/scrlogo.sty
INPUT /usr/local/texlive/2021/texmf-dist/tex/latex/koma-script/scrlogo.sty
INPUT /usr/local/texlive/2021/texmf-dist/tex/latex/koma-script/scrlogo.sty
INPUT /usr/local/texlive/2021/texmf-dist/tex/latex/koma-script/scrlogo.sty
INPUT /usr/local/texlive/2021/texmf-dist/tex/latex/koma-script/scrlogo.sty
INPUT /usr/local/texlive/2021/texmf-dist/tex/latex/graphics/keyval.sty
INPUT /usr/local/texlive/2021/texmf-dist/tex/generic/pdftexcmds/pdftexcmds.sty
INPUT /usr/local/texlive/2021/texmf-dist/tex/generic/pdftexcmds/pdftexcmds.sty
INPUT /usr/local/texlive/2021/texmf-dist/tex/generic/pdftexcmds/pdftexcmds.sty
INPUT /usr/local/texlive/2021/texmf-dist/tex/generic/pdftexcmds/pdftexcmds.sty
INPUT /usr/local/texlive/2021/texmf-dist/tex/generic/pdftexcmds/pdftexcmds.sty
INPUT /usr/local/texlive/2021/texmf-dist/tex/generic/pdftexcmds/pdftexcmds.sty
INPUT /usr/local/texlive/2021/texmf-dist/tex/generic/pdftexcmds/pdftexcmds.sty
INPUT /usr/local/texlive/2021/texmf-dist/tex/generic/pdftexcmds/pdftexcmds.sty
INPUT /usr/local/texlive/2021/texmf-dist/tex/generic/pdftexcmds/pdftexcmds.sty
INPUT /usr/local/texlive/2021/texmf-dist/tex/generic/pdftexcmds/pdftexcmds.sty
INPUT /usr/local/texlive/2021/texmf-dist/tex/generic/pdftexcmds/pdftexcmds.sty
INPUT /usr/local/texlive/2021/texmf-dist/tex/generic/infwarerr/infwarerr.sty
INPUT /usr/local/texlive/2021/texmf-dist/tex/generic/infwarerr/infwarerr.sty
INPUT /usr/local/texlive/2021/texmf-dist/tex/generic/infwarerr/infwarerr.sty
INPUT /usr/local/texlive/2021/texmf-dist/tex/generic/infwarerr/infwarerr.sty
INPUT /usr/local/texlive/2021/texmf-dist/tex/generic/infwarerr/infwarerr.sty
INPUT /usr/local/texlive/2021/texmf-dist/tex/generic/infwarerr/infwarerr.sty
INPUT /usr/local/texlive/2021/texmf-dist/tex/generic/infwarerr/infwarerr.sty
INPUT /usr/local/texlive/2021/texmf-dist/tex/generic/infwarerr/infwarerr.sty
INPUT /usr/local/texlive/2021/texmf-dist/tex/generic/infwarerr/infwarerr.sty
INPUT /usr/local/texlive/2021/texmf-dist/tex/generic/infwarerr/infwarerr.sty
INPUT /usr/local/texlive/2021/texmf-dist/tex/generic/infwarerr/infwarerr.sty
INPUT /usr/local/texlive/2021/texmf-dist/tex/generic/iftex/iftex.sty
INPUT /usr/local/texlive/2021/texmf-dist/tex/generic/ltxcmds/ltxcmds.sty
INPUT /usr/local/texlive/2021/texmf-dist/tex/latex/trimspaces/trimspaces.sty
INPUT /usr/local/texlive/2021/texmf-dist/tex/latex/trimspaces/trimspaces.sty
INPUT /usr/local/texlive/2021/texmf-dist/tex/latex/trimspaces/trimspaces.sty
INPUT /usr/local/texlive/2021/texmf-dist/tex/latex/trimspaces/trimspaces.sty
INPUT /usr/local/texlive/2021/texmf-dist/tex/latex/trimspaces/trimspaces.sty
INPUT /usr/local/texlive/2021/texmf-dist/tex/latex/trimspaces/trimspaces.sty
INPUT /usr/local/texlive/2021/texmf-dist/tex/latex/trimspaces/trimspaces.sty
INPUT /usr/local/texlive/2021/texmf-dist/tex/latex/trimspaces/trimspaces.sty
INPUT /usr/local/texlive/2021/texmf-dist/tex/latex/trimspaces/trimspaces.sty
INPUT /usr/local/texlive/2021/texmf-dist/tex/latex/trimspaces/trimspaces.sty
INPUT /usr/local/texlive/2021/texmf-dist/tex/latex/trimspaces/trimspaces.sty
INPUT /usr/local/texlive/2021/texmf-dist/tex/latex/graphics/graphicx.sty
INPUT /usr/local/texlive/2021/texmf-dist/tex/latex/tools/shellesc.sty
INPUT /usr/local/texlive/2021/texmf-dist/tex/latex/tools/shellesc.sty
INPUT /usr/local/texlive/2021/texmf-dist/tex/latex/tools/shellesc.sty
INPUT /usr/local/texlive/2021/texmf-dist/tex/latex/tools/shellesc.sty
INPUT /usr/local/texlive/2021/texmf-dist/tex/latex/tools/shellesc.sty
INPUT /usr/local/texlive/2021/texmf-dist/tex/latex/tools/shellesc.sty
INPUT /usr/local/texlive/2021/texmf-dist/tex/latex/tools/shellesc.sty
INPUT /usr/local/texlive/2021/texmf-dist/tex/latex/tools/shellesc.sty
INPUT /usr/local/texlive/2021/texmf-dist/tex/latex/tools/shellesc.sty
INPUT /usr/local/texlive/2021/texmf-dist/tex/latex/tools/shellesc.sty
INPUT /usr/local/texlive/2021/texmf-dist/tex/latex/tools/shellesc.sty
INPUT /usr/local/texlive/2021/texmf-dist/tex/latex/xcolor/xcolor.sty
INPUT /usr/local/texlive/2021/texmf-dist/tex/latex/transparent/transparent.sty
INPUT /usr/local/texlive/2021/texmf-dist/tex/latex/transparent/transparent.sty
INPUT /usr/local/texlive/2021/texmf-dist/tex/latex/transparent/transparent.sty
INPUT /usr/local/texlive/2021/texmf-dist/tex/latex/transparent/transparent.sty
INPUT /usr/local/texlive/2021/texmf-dist/tex/latex/transparent/transparent.sty
INPUT /usr/local/texlive/2021/texmf-dist/tex/latex/transparent/transparent.sty
INPUT /usr/local/texlive/2021/texmf-dist/tex/latex/transparent/transparent.sty
INPUT /usr/local/texlive/2021/texmf-dist/tex/latex/transparent/transparent.sty
INPUT /usr/local/texlive/2021/texmf-dist/tex/latex/transparent/transparent.sty
INPUT /usr/local/texlive/2021/texmf-dist/tex/latex/transparent/transparent.sty
INPUT /usr/local/texlive/2021/texmf-dist/tex/latex/transparent/transparent.sty
INPUT /usr/local/texlive/2021/texmf-dist/tex/generic/iftex/iftex.sty
INPUT /usr/local/texlive/2021/texmf-dist/tex/latex/auxhook/auxhook.sty
INPUT /usr/local/texlive/2021/texmf-dist/tex/latex/auxhook/auxhook.sty
INPUT /usr/local/texlive/2021/texmf-dist/tex/latex/auxhook/auxhook.sty
INPUT /usr/local/texlive/2021/texmf-dist/tex/latex/auxhook/auxhook.sty
INPUT /usr/local/texlive/2021/texmf-dist/tex/latex/auxhook/auxhook.sty
INPUT /usr/local/texlive/2021/texmf-dist/tex/latex/auxhook/auxhook.sty
INPUT /usr/local/texlive/2021/texmf-dist/tex/latex/auxhook/auxhook.sty
INPUT /usr/local/texlive/2021/texmf-dist/tex/latex/auxhook/auxhook.sty
INPUT /usr/local/texlive/2021/texmf-dist/tex/latex/auxhook/auxhook.sty
INPUT /usr/local/texlive/2021/texmf-dist/tex/latex/auxhook/auxhook.sty
INPUT /usr/local/texlive/2021/texmf-dist/tex/latex/auxhook/auxhook.sty
INPUT /usr/local/texlive/2021/texmf-dist/tex/latex/pgf/systemlayer/pgfsys.sty
INPUT /usr/local/texlive/2021/texmf-dist/tex/latex/pgf/systemlayer/pgfsys.sty
INPUT /usr/local/texlive/2021/texmf-dist/tex/latex/pgf/systemlayer/pgfsys.sty
INPUT /usr/local/texlive/2021/texmf-dist/tex/latex/pgf/systemlayer/pgfsys.sty
INPUT /usr/local/texlive/2021/texmf-dist/tex/latex/pgf/systemlayer/pgfsys.sty
INPUT /usr/local/texlive/2021/texmf-dist/tex/latex/pgf/systemlayer/pgfsys.sty
INPUT /usr/local/texlive/2021/texmf-dist/tex/latex/pgf/systemlayer/pgfsys.sty
INPUT /usr/local/texlive/2021/texmf-dist/tex/latex/pgf/systemlayer/pgfsys.sty
INPUT /usr/local/texlive/2021/texmf-dist/tex/latex/pgf/systemlayer/pgfsys.sty
INPUT /usr/local/texlive/2021/texmf-dist/tex/latex/pgf/systemlayer/pgfsys.sty
INPUT /usr/local/texlive/2021/texmf-dist/tex/latex/pgf/systemlayer/pgfsys.sty
INPUT /usr/local/texlive/2021/texmf-dist/tex/latex/pgf/utilities/pgfrcs.sty
INPUT /usr/local/texlive/2021/texmf-dist/tex/latex/pgf/utilities/pgfrcs.sty
INPUT /usr/local/texlive/2021/texmf-dist/tex/latex/pgf/utilities/pgfrcs.sty
INPUT /usr/local/texlive/2021/texmf-dist/tex/latex/pgf/utilities/pgfrcs.sty
INPUT /usr/local/texlive/2021/texmf-dist/tex/latex/pgf/utilities/pgfrcs.sty
INPUT /usr/local/texlive/2021/texmf-dist/tex/latex/pgf/utilities/pgfrcs.sty
INPUT /usr/local/texlive/2021/texmf-dist/tex/latex/pgf/utilities/pgfrcs.sty
INPUT /usr/local/texlive/2021/texmf-dist/tex/latex/pgf/utilities/pgfrcs.sty
INPUT /usr/local/texlive/2021/texmf-dist/tex/latex/pgf/utilities/pgfrcs.sty
INPUT /usr/local/texlive/2021/texmf-dist/tex/latex/pgf/utilities/pgfrcs.sty
INPUT /usr/local/texlive/2021/texmf-dist/tex/latex/pgf/utilities/pgfrcs.sty
INPUT /usr/local/texlive/2021/texmf-dist/tex/generic/pgf/utilities/pgfutil-common.tex
INPUT /usr/local/texlive/2021/texmf-dist/tex/generic/pgf/utilities/pgfutil-common-lists.tex
INPUT /usr/local/texlive/2021/texmf-dist/tex/generic/pgf/utilities/pgfutil-latex.def
INPUT /usr/local/texlive/2021/texmf-dist/tex/generic/pgf/utilities/pgfrcs.code.tex
INPUT /usr/local/texlive/2021/texmf-dist/tex/generic/pgf/utilities/pgfrcs.code.tex
INPUT /usr/local/texlive/2021/texmf-dist/tex/generic/pgf/utilities/pgfrcs.code.tex
INPUT /usr/local/texlive/2021/texmf-dist/tex/generic/pgf/utilities/pgfrcs.code.tex
INPUT /usr/local/texlive/2021/texmf-dist/tex/generic/pgf/pgf.revision.tex
INPUT /usr/local/texlive/2021/texmf-dist/tex/generic/pgf/pgf.revision.tex
INPUT /usr/local/texlive/2021/texmf-dist/tex/generic/pgf/systemlayer/pgfsys.code.tex
INPUT /usr/local/texlive/2021/texmf-dist/tex/generic/pgf/systemlayer/pgfsys.code.tex
INPUT /usr/local/texlive/2021/texmf-dist/tex/generic/pgf/systemlayer/pgfsys.code.tex
INPUT /usr/local/texlive/2021/texmf-dist/tex/generic/pgf/systemlayer/pgfsys.code.tex
INPUT /usr/local/texlive/2021/texmf-dist/tex/generic/pgf/utilities/pgfkeys.code.tex
INPUT /usr/local/texlive/2021/texmf-dist/tex/generic/pgf/utilities/pgfkeysfiltered.code.tex
INPUT /usr/local/texlive/2021/texmf-dist/tex/generic/pgf/systemlayer/pgf.cfg
INPUT /usr/local/texlive/2021/texmf-dist/tex/generic/pgf/systemlayer/pgfsys-pdftex.def
INPUT /usr/local/texlive/2021/texmf-dist/tex/generic/pgf/systemlayer/pgfsys-pdftex.def
INPUT /usr/local/texlive/2021/texmf-dist/tex/generic/pgf/systemlayer/pgfsys-common-pdf.def
INPUT /usr/local/texlive/2021/texmf-dist/tex/generic/pgf/systemlayer/pgfsyssoftpath.code.tex
INPUT /usr/local/texlive/2021/texmf-dist/tex/generic/pgf/systemlayer/pgfsyssoftpath.code.tex
INPUT /usr/local/texlive/2021/texmf-dist/tex/generic/pgf/systemlayer/pgfsyssoftpath.code.tex
INPUT /usr/local/texlive/2021/texmf-dist/tex/generic/pgf/systemlayer/pgfsyssoftpath.code.tex
INPUT /usr/local/texlive/2021/texmf-dist/tex/generic/pgf/systemlayer/pgfsysprotocol.code.tex
INPUT /usr/local/texlive/2021/texmf-dist/tex/generic/pgf/systemlayer/pgfsysprotocol.code.tex
INPUT /usr/local/texlive/2021/texmf-dist/tex/generic/pgf/systemlayer/pgfsysprotocol.code.tex
INPUT /usr/local/texlive/2021/texmf-dist/tex/generic/pgf/systemlayer/pgfsysprotocol.code.tex
INPUT /usr/local/texlive/2021/texmf-dist/tex/latex/mathtools/mathtools.sty
INPUT /usr/local/texlive/2021/texmf-dist/tex/latex/mathtools/mathtools.sty
INPUT /usr/local/texlive/2021/texmf-dist/tex/latex/mathtools/mathtools.sty
INPUT /usr/local/texlive/2021/texmf-dist/tex/latex/mathtools/mathtools.sty
INPUT /usr/local/texlive/2021/texmf-dist/tex/latex/mathtools/mathtools.sty
INPUT /usr/local/texlive/2021/texmf-dist/tex/latex/mathtools/mathtools.sty
INPUT /usr/local/texlive/2021/texmf-dist/tex/latex/mathtools/mathtools.sty
INPUT /usr/local/texlive/2021/texmf-dist/tex/latex/mathtools/mathtools.sty
INPUT /usr/local/texlive/2021/texmf-dist/tex/latex/mathtools/mathtools.sty
INPUT /usr/local/texlive/2021/texmf-dist/tex/latex/mathtools/mathtools.sty
INPUT /usr/local/texlive/2021/texmf-dist/tex/latex/mathtools/mathtools.sty
INPUT /usr/local/texlive/2021/texmf-dist/tex/latex/graphics/keyval.sty
INPUT /usr/local/texlive/2021/texmf-dist/tex/latex/tools/calc.sty
INPUT /usr/local/texlive/2021/texmf-dist/tex/latex/tools/calc.sty
INPUT /usr/local/texlive/2021/texmf-dist/tex/latex/tools/calc.sty
INPUT /usr/local/texlive/2021/texmf-dist/tex/latex/tools/calc.sty
INPUT /usr/local/texlive/2021/texmf-dist/tex/latex/tools/calc.sty
INPUT /usr/local/texlive/2021/texmf-dist/tex/latex/tools/calc.sty
INPUT /usr/local/texlive/2021/texmf-dist/tex/latex/tools/calc.sty
INPUT /usr/local/texlive/2021/texmf-dist/tex/latex/tools/calc.sty
INPUT /usr/local/texlive/2021/texmf-dist/tex/latex/tools/calc.sty
INPUT /usr/local/texlive/2021/texmf-dist/tex/latex/tools/calc.sty
INPUT /usr/local/texlive/2021/texmf-dist/tex/latex/tools/calc.sty
INPUT /usr/local/texlive/2021/texmf-dist/tex/latex/mathtools/mhsetup.sty
INPUT /usr/local/texlive/2021/texmf-dist/tex/latex/mathtools/mhsetup.sty
INPUT /usr/local/texlive/2021/texmf-dist/tex/latex/mathtools/mhsetup.sty
INPUT /usr/local/texlive/2021/texmf-dist/tex/latex/mathtools/mhsetup.sty
INPUT /usr/local/texlive/2021/texmf-dist/tex/latex/mathtools/mhsetup.sty
INPUT /usr/local/texlive/2021/texmf-dist/tex/latex/mathtools/mhsetup.sty
INPUT /usr/local/texlive/2021/texmf-dist/tex/latex/mathtools/mhsetup.sty
INPUT /usr/local/texlive/2021/texmf-dist/tex/latex/mathtools/mhsetup.sty
INPUT /usr/local/texlive/2021/texmf-dist/tex/latex/mathtools/mhsetup.sty
INPUT /usr/local/texlive/2021/texmf-dist/tex/latex/mathtools/mhsetup.sty
INPUT /usr/local/texlive/2021/texmf-dist/tex/latex/mathtools/mhsetup.sty
INPUT /usr/local/texlive/2021/texmf-dist/tex/latex/amsmath/amsmath.sty
INPUT /usr/local/texlive/2021/texmf-dist/tex/latex/hyperref/hyperref.sty
INPUT /usr/local/texlive/2021/texmf-dist/tex/latex/hyperref/hyperref.sty
INPUT /usr/local/texlive/2021/texmf-dist/tex/latex/hyperref/hyperref.sty
INPUT /usr/local/texlive/2021/texmf-dist/tex/latex/hyperref/hyperref.sty
INPUT /usr/local/texlive/2021/texmf-dist/tex/latex/hyperref/hyperref.sty
INPUT /usr/local/texlive/2021/texmf-dist/tex/latex/hyperref/hyperref.sty
INPUT /usr/local/texlive/2021/texmf-dist/tex/latex/hyperref/hyperref.sty
INPUT /usr/local/texlive/2021/texmf-dist/tex/latex/hyperref/hyperref.sty
INPUT /usr/local/texlive/2021/texmf-dist/tex/latex/hyperref/hyperref.sty
INPUT /usr/local/texlive/2021/texmf-dist/tex/latex/hyperref/hyperref.sty
INPUT /usr/local/texlive/2021/texmf-dist/tex/latex/hyperref/hyperref.sty
INPUT /usr/local/texlive/2021/texmf-dist/tex/generic/ltxcmds/ltxcmds.sty
INPUT /usr/local/texlive/2021/texmf-dist/tex/generic/iftex/iftex.sty
INPUT /usr/local/texlive/2021/texmf-dist/tex/generic/pdftexcmds/pdftexcmds.sty
INPUT /usr/local/texlive/2021/texmf-dist/tex/generic/infwarerr/infwarerr.sty
INPUT /usr/local/texlive/2021/texmf-dist/tex/latex/graphics/keyval.sty
INPUT /usr/local/texlive/2021/texmf-dist/tex/generic/kvsetkeys/kvsetkeys.sty
INPUT /usr/local/texlive/2021/texmf-dist/tex/generic/kvdefinekeys/kvdefinekeys.sty
INPUT /usr/local/texlive/2021/texmf-dist/tex/generic/kvdefinekeys/kvdefinekeys.sty
INPUT /usr/local/texlive/2021/texmf-dist/tex/generic/kvdefinekeys/kvdefinekeys.sty
INPUT /usr/local/texlive/2021/texmf-dist/tex/generic/kvdefinekeys/kvdefinekeys.sty
INPUT /usr/local/texlive/2021/texmf-dist/tex/generic/kvdefinekeys/kvdefinekeys.sty
INPUT /usr/local/texlive/2021/texmf-dist/tex/generic/kvdefinekeys/kvdefinekeys.sty
INPUT /usr/local/texlive/2021/texmf-dist/tex/generic/kvdefinekeys/kvdefinekeys.sty
INPUT /usr/local/texlive/2021/texmf-dist/tex/generic/kvdefinekeys/kvdefinekeys.sty
INPUT /usr/local/texlive/2021/texmf-dist/tex/generic/kvdefinekeys/kvdefinekeys.sty
INPUT /usr/local/texlive/2021/texmf-dist/tex/generic/kvdefinekeys/kvdefinekeys.sty
INPUT /usr/local/texlive/2021/texmf-dist/tex/generic/kvdefinekeys/kvdefinekeys.sty
INPUT /usr/local/texlive/2021/texmf-dist/tex/generic/pdfescape/pdfescape.sty
INPUT /usr/local/texlive/2021/texmf-dist/tex/generic/pdfescape/pdfescape.sty
INPUT /usr/local/texlive/2021/texmf-dist/tex/generic/pdfescape/pdfescape.sty
INPUT /usr/local/texlive/2021/texmf-dist/tex/generic/pdfescape/pdfescape.sty
INPUT /usr/local/texlive/2021/texmf-dist/tex/generic/pdfescape/pdfescape.sty
INPUT /usr/local/texlive/2021/texmf-dist/tex/generic/pdfescape/pdfescape.sty
INPUT /usr/local/texlive/2021/texmf-dist/tex/generic/pdfescape/pdfescape.sty
INPUT /usr/local/texlive/2021/texmf-dist/tex/generic/pdfescape/pdfescape.sty
INPUT /usr/local/texlive/2021/texmf-dist/tex/generic/pdfescape/pdfescape.sty
INPUT /usr/local/texlive/2021/texmf-dist/tex/generic/pdfescape/pdfescape.sty
INPUT /usr/local/texlive/2021/texmf-dist/tex/generic/pdfescape/pdfescape.sty
INPUT /usr/local/texlive/2021/texmf-dist/tex/generic/ltxcmds/ltxcmds.sty
INPUT /usr/local/texlive/2021/texmf-dist/tex/generic/pdftexcmds/pdftexcmds.sty
INPUT /usr/local/texlive/2021/texmf-dist/tex/latex/hycolor/hycolor.sty
INPUT /usr/local/texlive/2021/texmf-dist/tex/latex/hycolor/hycolor.sty
INPUT /usr/local/texlive/2021/texmf-dist/tex/latex/hycolor/hycolor.sty
INPUT /usr/local/texlive/2021/texmf-dist/tex/latex/hycolor/hycolor.sty
INPUT /usr/local/texlive/2021/texmf-dist/tex/latex/hycolor/hycolor.sty
INPUT /usr/local/texlive/2021/texmf-dist/tex/latex/hycolor/hycolor.sty
INPUT /usr/local/texlive/2021/texmf-dist/tex/latex/hycolor/hycolor.sty
INPUT /usr/local/texlive/2021/texmf-dist/tex/latex/hycolor/hycolor.sty
INPUT /usr/local/texlive/2021/texmf-dist/tex/latex/hycolor/hycolor.sty
INPUT /usr/local/texlive/2021/texmf-dist/tex/latex/hycolor/hycolor.sty
INPUT /usr/local/texlive/2021/texmf-dist/tex/latex/hycolor/hycolor.sty
INPUT /usr/local/texlive/2021/texmf-dist/tex/latex/letltxmacro/letltxmacro.sty
INPUT /usr/local/texlive/2021/texmf-dist/tex/latex/letltxmacro/letltxmacro.sty
INPUT /usr/local/texlive/2021/texmf-dist/tex/latex/letltxmacro/letltxmacro.sty
INPUT /usr/local/texlive/2021/texmf-dist/tex/latex/letltxmacro/letltxmacro.sty
INPUT /usr/local/texlive/2021/texmf-dist/tex/latex/letltxmacro/letltxmacro.sty
INPUT /usr/local/texlive/2021/texmf-dist/tex/latex/letltxmacro/letltxmacro.sty
INPUT /usr/local/texlive/2021/texmf-dist/tex/latex/letltxmacro/letltxmacro.sty
INPUT /usr/local/texlive/2021/texmf-dist/tex/latex/letltxmacro/letltxmacro.sty
INPUT /usr/local/texlive/2021/texmf-dist/tex/latex/letltxmacro/letltxmacro.sty
INPUT /usr/local/texlive/2021/texmf-dist/tex/latex/letltxmacro/letltxmacro.sty
INPUT /usr/local/texlive/2021/texmf-dist/tex/latex/letltxmacro/letltxmacro.sty
INPUT /usr/local/texlive/2021/texmf-dist/tex/latex/auxhook/auxhook.sty
INPUT /usr/local/texlive/2021/texmf-dist/tex/latex/kvoptions/kvoptions.sty
INPUT /usr/local/texlive/2021/texmf-dist/tex/latex/hyperref/pd1enc.def
INPUT /usr/local/texlive/2021/texmf-dist/tex/latex/hyperref/pd1enc.def
INPUT /usr/local/texlive/2021/texmf-dist/tex/latex/hyperref/pd1enc.def
INPUT /usr/local/texlive/2021/texmf-dist/tex/latex/hyperref/pd1enc.def
INPUT /usr/local/texlive/2021/texmf-dist/tex/latex/hyperref/hyperref-langpatches.def
INPUT /usr/local/texlive/2021/texmf-dist/tex/latex/hyperref/hyperref-langpatches.def
INPUT /usr/local/texlive/2021/texmf-dist/tex/latex/hyperref/hyperref-langpatches.def
INPUT /usr/local/texlive/2021/texmf-dist/tex/latex/hyperref/hyperref-langpatches.def
INPUT /usr/local/texlive/2021/texmf-dist/tex/generic/intcalc/intcalc.sty
INPUT /usr/local/texlive/2021/texmf-dist/tex/generic/intcalc/intcalc.sty
INPUT /usr/local/texlive/2021/texmf-dist/tex/generic/intcalc/intcalc.sty
INPUT /usr/local/texlive/2021/texmf-dist/tex/generic/intcalc/intcalc.sty
INPUT /usr/local/texlive/2021/texmf-dist/tex/generic/intcalc/intcalc.sty
INPUT /usr/local/texlive/2021/texmf-dist/tex/generic/intcalc/intcalc.sty
INPUT /usr/local/texlive/2021/texmf-dist/tex/generic/intcalc/intcalc.sty
INPUT /usr/local/texlive/2021/texmf-dist/tex/generic/intcalc/intcalc.sty
INPUT /usr/local/texlive/2021/texmf-dist/tex/generic/intcalc/intcalc.sty
INPUT /usr/local/texlive/2021/texmf-dist/tex/generic/intcalc/intcalc.sty
INPUT /usr/local/texlive/2021/texmf-dist/tex/generic/intcalc/intcalc.sty
INPUT /usr/local/texlive/2021/texmf-dist/tex/generic/etexcmds/etexcmds.sty
INPUT /usr/local/texlive/2021/texmf-dist/tex/generic/etexcmds/etexcmds.sty
INPUT /usr/local/texlive/2021/texmf-dist/tex/generic/etexcmds/etexcmds.sty
INPUT /usr/local/texlive/2021/texmf-dist/tex/generic/etexcmds/etexcmds.sty
INPUT /usr/local/texlive/2021/texmf-dist/tex/generic/etexcmds/etexcmds.sty
INPUT /usr/local/texlive/2021/texmf-dist/tex/generic/etexcmds/etexcmds.sty
INPUT /usr/local/texlive/2021/texmf-dist/tex/generic/etexcmds/etexcmds.sty
INPUT /usr/local/texlive/2021/texmf-dist/tex/generic/etexcmds/etexcmds.sty
INPUT /usr/local/texlive/2021/texmf-dist/tex/generic/etexcmds/etexcmds.sty
INPUT /usr/local/texlive/2021/texmf-dist/tex/generic/etexcmds/etexcmds.sty
INPUT /usr/local/texlive/2021/texmf-dist/tex/generic/etexcmds/etexcmds.sty
INPUT /usr/local/texlive/2021/texmf-dist/tex/generic/infwarerr/infwarerr.sty
INPUT /usr/local/texlive/2021/texmf-dist/tex/generic/iftex/iftex.sty
INPUT /usr/local/texlive/2021/texmf-dist/tex/latex/hyperref/puenc.def
INPUT /usr/local/texlive/2021/texmf-dist/tex/latex/hyperref/puenc.def
INPUT /usr/local/texlive/2021/texmf-dist/tex/latex/hyperref/puenc.def
INPUT /usr/local/texlive/2021/texmf-dist/tex/latex/hyperref/puenc.def
INPUT /usr/local/texlive/2021/texmf-dist/tex/latex/url/url.sty
INPUT /usr/local/texlive/2021/texmf-dist/tex/latex/url/url.sty
INPUT /usr/local/texlive/2021/texmf-dist/tex/latex/url/url.sty
INPUT /usr/local/texlive/2021/texmf-dist/tex/latex/url/url.sty
INPUT /usr/local/texlive/2021/texmf-dist/tex/latex/url/url.sty
INPUT /usr/local/texlive/2021/texmf-dist/tex/latex/url/url.sty
INPUT /usr/local/texlive/2021/texmf-dist/tex/latex/url/url.sty
INPUT /usr/local/texlive/2021/texmf-dist/tex/latex/url/url.sty
INPUT /usr/local/texlive/2021/texmf-dist/tex/latex/url/url.sty
INPUT /usr/local/texlive/2021/texmf-dist/tex/latex/url/url.sty
INPUT /usr/local/texlive/2021/texmf-dist/tex/latex/url/url.sty
INPUT /usr/local/texlive/2021/texmf-dist/tex/generic/bitset/bitset.sty
INPUT /usr/local/texlive/2021/texmf-dist/tex/generic/bitset/bitset.sty
INPUT /usr/local/texlive/2021/texmf-dist/tex/generic/bitset/bitset.sty
INPUT /usr/local/texlive/2021/texmf-dist/tex/generic/bitset/bitset.sty
INPUT /usr/local/texlive/2021/texmf-dist/tex/generic/bitset/bitset.sty
INPUT /usr/local/texlive/2021/texmf-dist/tex/generic/bitset/bitset.sty
INPUT /usr/local/texlive/2021/texmf-dist/tex/generic/bitset/bitset.sty
INPUT /usr/local/texlive/2021/texmf-dist/tex/generic/bitset/bitset.sty
INPUT /usr/local/texlive/2021/texmf-dist/tex/generic/bitset/bitset.sty
INPUT /usr/local/texlive/2021/texmf-dist/tex/generic/bitset/bitset.sty
INPUT /usr/local/texlive/2021/texmf-dist/tex/generic/bitset/bitset.sty
INPUT /usr/local/texlive/2021/texmf-dist/tex/generic/infwarerr/infwarerr.sty
INPUT /usr/local/texlive/2021/texmf-dist/tex/generic/intcalc/intcalc.sty
INPUT /usr/local/texlive/2021/texmf-dist/tex/generic/bigintcalc/bigintcalc.sty
INPUT /usr/local/texlive/2021/texmf-dist/tex/generic/bigintcalc/bigintcalc.sty
INPUT /usr/local/texlive/2021/texmf-dist/tex/generic/bigintcalc/bigintcalc.sty
INPUT /usr/local/texlive/2021/texmf-dist/tex/generic/bigintcalc/bigintcalc.sty
INPUT /usr/local/texlive/2021/texmf-dist/tex/generic/bigintcalc/bigintcalc.sty
INPUT /usr/local/texlive/2021/texmf-dist/tex/generic/bigintcalc/bigintcalc.sty
INPUT /usr/local/texlive/2021/texmf-dist/tex/generic/bigintcalc/bigintcalc.sty
INPUT /usr/local/texlive/2021/texmf-dist/tex/generic/bigintcalc/bigintcalc.sty
INPUT /usr/local/texlive/2021/texmf-dist/tex/generic/bigintcalc/bigintcalc.sty
INPUT /usr/local/texlive/2021/texmf-dist/tex/generic/bigintcalc/bigintcalc.sty
INPUT /usr/local/texlive/2021/texmf-dist/tex/generic/bigintcalc/bigintcalc.sty
INPUT /usr/local/texlive/2021/texmf-dist/tex/generic/pdftexcmds/pdftexcmds.sty
INPUT /usr/local/texlive/2021/texmf-dist/tex/generic/atbegshi/atbegshi.sty
INPUT /usr/local/texlive/2021/texmf-dist/tex/generic/atbegshi/atbegshi.sty
INPUT /usr/local/texlive/2021/texmf-dist/tex/generic/atbegshi/atbegshi.sty
INPUT /usr/local/texlive/2021/texmf-dist/tex/latex/base/atbegshi-ltx.sty
INPUT /usr/local/texlive/2021/texmf-dist/tex/generic/atbegshi/atbegshi.sty
INPUT /usr/local/texlive/2021/texmf-dist/tex/generic/atbegshi/atbegshi.sty
INPUT /usr/local/texlive/2021/texmf-dist/tex/latex/base/atbegshi-ltx.sty
INPUT /usr/local/texlive/2021/texmf-dist/tex/generic/atbegshi/atbegshi.sty
INPUT /usr/local/texlive/2021/texmf-dist/tex/latex/base/atbegshi-ltx.sty
INPUT /usr/local/texlive/2021/texmf-dist/tex/latex/base/atbegshi-ltx.sty
INPUT /usr/local/texlive/2021/texmf-dist/tex/generic/atbegshi/atbegshi.sty
INPUT /usr/local/texlive/2021/texmf-dist/tex/generic/atbegshi/atbegshi.sty
INPUT /usr/local/texlive/2021/texmf-dist/tex/latex/base/atbegshi-ltx.sty
INPUT /usr/local/texlive/2021/texmf-dist/tex/latex/base/atbegshi-ltx.sty
INPUT /usr/local/texlive/2021/texmf-dist/tex/generic/atbegshi/atbegshi.sty
INPUT /usr/local/texlive/2021/texmf-dist/tex/latex/base/atbegshi-ltx.sty
INPUT /usr/local/texlive/2021/texmf-dist/tex/latex/hyperref/hpdftex.def
INPUT /usr/local/texlive/2021/texmf-dist/tex/latex/hyperref/hpdftex.def
INPUT /usr/local/texlive/2021/texmf-dist/tex/latex/hyperref/hpdftex.def
INPUT /usr/local/texlive/2021/texmf-dist/tex/latex/hyperref/hpdftex.def
INPUT /usr/local/texlive/2021/texmf-dist/tex/latex/atveryend/atveryend.sty
INPUT /usr/local/texlive/2021/texmf-dist/tex/latex/atveryend/atveryend.sty
INPUT /usr/local/texlive/2021/texmf-dist/tex/latex/atveryend/atveryend.sty
INPUT /usr/local/texlive/2021/texmf-dist/tex/latex/base/atveryend-ltx.sty
INPUT /usr/local/texlive/2021/texmf-dist/tex/latex/atveryend/atveryend.sty
INPUT /usr/local/texlive/2021/texmf-dist/tex/latex/atveryend/atveryend.sty
INPUT /usr/local/texlive/2021/texmf-dist/tex/latex/base/atveryend-ltx.sty
INPUT /usr/local/texlive/2021/texmf-dist/tex/latex/atveryend/atveryend.sty
INPUT /usr/local/texlive/2021/texmf-dist/tex/latex/base/atveryend-ltx.sty
INPUT /usr/local/texlive/2021/texmf-dist/tex/latex/base/atveryend-ltx.sty
INPUT /usr/local/texlive/2021/texmf-dist/tex/latex/atveryend/atveryend.sty
INPUT /usr/local/texlive/2021/texmf-dist/tex/latex/atveryend/atveryend.sty
INPUT /usr/local/texlive/2021/texmf-dist/tex/latex/base/atveryend-ltx.sty
INPUT /usr/local/texlive/2021/texmf-dist/tex/latex/base/atveryend-ltx.sty
INPUT /usr/local/texlive/2021/texmf-dist/tex/latex/atveryend/atveryend.sty
INPUT /usr/local/texlive/2021/texmf-dist/tex/latex/base/atveryend-ltx.sty
INPUT /usr/local/texlive/2021/texmf-dist/tex/latex/rerunfilecheck/rerunfilecheck.sty
INPUT /usr/local/texlive/2021/texmf-dist/tex/latex/rerunfilecheck/rerunfilecheck.sty
INPUT /usr/local/texlive/2021/texmf-dist/tex/latex/rerunfilecheck/rerunfilecheck.sty
INPUT /usr/local/texlive/2021/texmf-dist/tex/latex/rerunfilecheck/rerunfilecheck.sty
INPUT /usr/local/texlive/2021/texmf-dist/tex/latex/rerunfilecheck/rerunfilecheck.sty
INPUT /usr/local/texlive/2021/texmf-dist/tex/latex/rerunfilecheck/rerunfilecheck.sty
INPUT /usr/local/texlive/2021/texmf-dist/tex/latex/rerunfilecheck/rerunfilecheck.sty
INPUT /usr/local/texlive/2021/texmf-dist/tex/latex/rerunfilecheck/rerunfilecheck.sty
INPUT /usr/local/texlive/2021/texmf-dist/tex/latex/rerunfilecheck/rerunfilecheck.sty
INPUT /usr/local/texlive/2021/texmf-dist/tex/latex/rerunfilecheck/rerunfilecheck.sty
INPUT /usr/local/texlive/2021/texmf-dist/tex/latex/rerunfilecheck/rerunfilecheck.sty
INPUT /usr/local/texlive/2021/texmf-dist/tex/latex/kvoptions/kvoptions.sty
INPUT /usr/local/texlive/2021/texmf-dist/tex/generic/infwarerr/infwarerr.sty
INPUT /usr/local/texlive/2021/texmf-dist/tex/generic/pdftexcmds/pdftexcmds.sty
INPUT /usr/local/texlive/2021/texmf-dist/tex/latex/atveryend/atveryend.sty
INPUT /usr/local/texlive/2021/texmf-dist/tex/generic/uniquecounter/uniquecounter.sty
INPUT /usr/local/texlive/2021/texmf-dist/tex/generic/uniquecounter/uniquecounter.sty
INPUT /usr/local/texlive/2021/texmf-dist/tex/generic/uniquecounter/uniquecounter.sty
INPUT /usr/local/texlive/2021/texmf-dist/tex/generic/uniquecounter/uniquecounter.sty
INPUT /usr/local/texlive/2021/texmf-dist/tex/generic/uniquecounter/uniquecounter.sty
INPUT /usr/local/texlive/2021/texmf-dist/tex/generic/uniquecounter/uniquecounter.sty
INPUT /usr/local/texlive/2021/texmf-dist/tex/generic/uniquecounter/uniquecounter.sty
INPUT /usr/local/texlive/2021/texmf-dist/tex/generic/uniquecounter/uniquecounter.sty
INPUT /usr/local/texlive/2021/texmf-dist/tex/generic/uniquecounter/uniquecounter.sty
INPUT /usr/local/texlive/2021/texmf-dist/tex/generic/uniquecounter/uniquecounter.sty
INPUT /usr/local/texlive/2021/texmf-dist/tex/generic/uniquecounter/uniquecounter.sty
INPUT /usr/local/texlive/2021/texmf-dist/tex/generic/bigintcalc/bigintcalc.sty
INPUT /usr/local/texlive/2021/texmf-dist/tex/generic/infwarerr/infwarerr.sty
INPUT /usr/local/texlive/2021/texmf-dist/tex/latex/fancyvrb/fancyvrb.sty
INPUT /usr/local/texlive/2021/texmf-dist/tex/latex/fancyvrb/fancyvrb.sty
INPUT /usr/local/texlive/2021/texmf-dist/tex/latex/fancyvrb/fancyvrb.sty
INPUT /usr/local/texlive/2021/texmf-dist/tex/latex/fancyvrb/fancyvrb.sty
INPUT /usr/local/texlive/2021/texmf-dist/tex/latex/fancyvrb/fancyvrb.sty
INPUT /usr/local/texlive/2021/texmf-dist/tex/latex/fancyvrb/fancyvrb.sty
INPUT /usr/local/texlive/2021/texmf-dist/tex/latex/fancyvrb/fancyvrb.sty
INPUT /usr/local/texlive/2021/texmf-dist/tex/latex/fancyvrb/fancyvrb.sty
INPUT /usr/local/texlive/2021/texmf-dist/tex/latex/fancyvrb/fancyvrb.sty
INPUT /usr/local/texlive/2021/texmf-dist/tex/latex/fancyvrb/fancyvrb.sty
INPUT /usr/local/texlive/2021/texmf-dist/tex/latex/fancyvrb/fancyvrb.sty
INPUT /usr/local/texlive/2021/texmf-dist/tex/latex/graphics/keyval.sty
INPUT /Users/aaa/myfile/bitbucket/math/aronlib.tex
INPUT /Users/aaa/myfile/bitbucket/math/aronlib.tex
INPUT /Users/aaa/myfile/bitbucket/math/aronlib.tex
INPUT /Users/aaa/myfile/bitbucket/math/aronlib.tex
INPUT /usr/local/texlive/2021/texmf-dist/tex/latex/pagecolor/pagecolor.sty
INPUT /usr/local/texlive/2021/texmf-dist/tex/latex/lipsum/lipsum.sty
INPUT /usr/local/texlive/2021/texmf-dist/tex/latex/amsfonts/amsfonts.sty
INPUT /usr/local/texlive/2021/texmf-dist/tex/latex/amsfonts/amssymb.sty
INPUT /usr/local/texlive/2021/texmf-dist/tex/latex/amsmath/amsmath.sty
INPUT /usr/local/texlive/2021/texmf-dist/tex/latex/amscls/amsthm.sty
INPUT /usr/local/texlive/2021/texmf-dist/tex/latex/mathtools/mathtools.sty
INPUT /usr/local/texlive/2021/texmf-dist/tex/latex/oberdiek/centernot.sty
INPUT /usr/local/texlive/2021/texmf-dist/tex/latex/pgf/frontendlayer/tikz.sty
INPUT /usr/local/texlive/2021/texmf-dist/tex/latex/pgf/frontendlayer/tikz.sty
INPUT /usr/local/texlive/2021/texmf-dist/tex/latex/pgf/frontendlayer/tikz.sty
INPUT /usr/local/texlive/2021/texmf-dist/tex/latex/pgf/frontendlayer/tikz.sty
INPUT /usr/local/texlive/2021/texmf-dist/tex/latex/pgf/frontendlayer/tikz.sty
INPUT /usr/local/texlive/2021/texmf-dist/tex/latex/pgf/frontendlayer/tikz.sty
INPUT /usr/local/texlive/2021/texmf-dist/tex/latex/pgf/frontendlayer/tikz.sty
INPUT /usr/local/texlive/2021/texmf-dist/tex/latex/pgf/frontendlayer/tikz.sty
INPUT /usr/local/texlive/2021/texmf-dist/tex/latex/pgf/frontendlayer/tikz.sty
INPUT /usr/local/texlive/2021/texmf-dist/tex/latex/pgf/frontendlayer/tikz.sty
INPUT /usr/local/texlive/2021/texmf-dist/tex/latex/pgf/frontendlayer/tikz.sty
INPUT /usr/local/texlive/2021/texmf-dist/tex/latex/pgf/basiclayer/pgf.sty
INPUT /usr/local/texlive/2021/texmf-dist/tex/latex/pgf/basiclayer/pgf.sty
INPUT /usr/local/texlive/2021/texmf-dist/tex/latex/pgf/basiclayer/pgf.sty
INPUT /usr/local/texlive/2021/texmf-dist/tex/latex/pgf/basiclayer/pgf.sty
INPUT /usr/local/texlive/2021/texmf-dist/tex/latex/pgf/basiclayer/pgf.sty
INPUT /usr/local/texlive/2021/texmf-dist/tex/latex/pgf/basiclayer/pgf.sty
INPUT /usr/local/texlive/2021/texmf-dist/tex/latex/pgf/basiclayer/pgf.sty
INPUT /usr/local/texlive/2021/texmf-dist/tex/latex/pgf/basiclayer/pgf.sty
INPUT /usr/local/texlive/2021/texmf-dist/tex/latex/pgf/basiclayer/pgf.sty
INPUT /usr/local/texlive/2021/texmf-dist/tex/latex/pgf/basiclayer/pgf.sty
INPUT /usr/local/texlive/2021/texmf-dist/tex/latex/pgf/basiclayer/pgf.sty
INPUT /usr/local/texlive/2021/texmf-dist/tex/latex/pgf/utilities/pgfrcs.sty
INPUT /usr/local/texlive/2021/texmf-dist/tex/latex/pgf/basiclayer/pgfcore.sty
INPUT /usr/local/texlive/2021/texmf-dist/tex/latex/pgf/basiclayer/pgfcore.sty
INPUT /usr/local/texlive/2021/texmf-dist/tex/latex/pgf/basiclayer/pgfcore.sty
INPUT /usr/local/texlive/2021/texmf-dist/tex/latex/pgf/basiclayer/pgfcore.sty
INPUT /usr/local/texlive/2021/texmf-dist/tex/latex/pgf/basiclayer/pgfcore.sty
INPUT /usr/local/texlive/2021/texmf-dist/tex/latex/pgf/basiclayer/pgfcore.sty
INPUT /usr/local/texlive/2021/texmf-dist/tex/latex/pgf/basiclayer/pgfcore.sty
INPUT /usr/local/texlive/2021/texmf-dist/tex/latex/pgf/basiclayer/pgfcore.sty
INPUT /usr/local/texlive/2021/texmf-dist/tex/latex/pgf/basiclayer/pgfcore.sty
INPUT /usr/local/texlive/2021/texmf-dist/tex/latex/pgf/basiclayer/pgfcore.sty
INPUT /usr/local/texlive/2021/texmf-dist/tex/latex/pgf/basiclayer/pgfcore.sty
INPUT /usr/local/texlive/2021/texmf-dist/tex/latex/graphics/graphicx.sty
INPUT /usr/local/texlive/2021/texmf-dist/tex/latex/pgf/systemlayer/pgfsys.sty
INPUT /usr/local/texlive/2021/texmf-dist/tex/latex/graphics/keyval.sty
INPUT /usr/local/texlive/2021/texmf-dist/tex/latex/xcolor/xcolor.sty
INPUT /usr/local/texlive/2021/texmf-dist/tex/generic/pgf/basiclayer/pgfcore.code.tex
INPUT /usr/local/texlive/2021/texmf-dist/tex/generic/pgf/basiclayer/pgfcore.code.tex
INPUT /usr/local/texlive/2021/texmf-dist/tex/generic/pgf/basiclayer/pgfcore.code.tex
INPUT /usr/local/texlive/2021/texmf-dist/tex/generic/pgf/basiclayer/pgfcore.code.tex
INPUT /usr/local/texlive/2021/texmf-dist/tex/generic/pgf/math/pgfmath.code.tex
INPUT /usr/local/texlive/2021/texmf-dist/tex/generic/pgf/math/pgfmathcalc.code.tex
INPUT /usr/local/texlive/2021/texmf-dist/tex/generic/pgf/math/pgfmathutil.code.tex
INPUT /usr/local/texlive/2021/texmf-dist/tex/generic/pgf/math/pgfmathparser.code.tex
INPUT /usr/local/texlive/2021/texmf-dist/tex/generic/pgf/math/pgfmathfunctions.code.tex
INPUT /usr/local/texlive/2021/texmf-dist/tex/generic/pgf/math/pgfmathfunctions.basic.code.tex
INPUT /usr/local/texlive/2021/texmf-dist/tex/generic/pgf/math/pgfmathfunctions.trigonometric.code.tex
INPUT /usr/local/texlive/2021/texmf-dist/tex/generic/pgf/math/pgfmathfunctions.random.code.tex
INPUT /usr/local/texlive/2021/texmf-dist/tex/generic/pgf/math/pgfmathfunctions.comparison.code.tex
INPUT /usr/local/texlive/2021/texmf-dist/tex/generic/pgf/math/pgfmathfunctions.base.code.tex
INPUT /usr/local/texlive/2021/texmf-dist/tex/generic/pgf/math/pgfmathfunctions.round.code.tex
INPUT /usr/local/texlive/2021/texmf-dist/tex/generic/pgf/math/pgfmathfunctions.misc.code.tex
INPUT /usr/local/texlive/2021/texmf-dist/tex/generic/pgf/math/pgfmathfunctions.integerarithmetics.code.tex
INPUT /usr/local/texlive/2021/texmf-dist/tex/generic/pgf/math/pgfmathfloat.code.tex
INPUT /usr/local/texlive/2021/texmf-dist/tex/generic/pgf/math/pgfint.code.tex
INPUT /usr/local/texlive/2021/texmf-dist/tex/generic/pgf/basiclayer/pgfcorepoints.code.tex
INPUT /usr/local/texlive/2021/texmf-dist/tex/generic/pgf/basiclayer/pgfcorepathconstruct.code.tex
INPUT /usr/local/texlive/2021/texmf-dist/tex/generic/pgf/basiclayer/pgfcorepathusage.code.tex
INPUT /usr/local/texlive/2021/texmf-dist/tex/generic/pgf/basiclayer/pgfcorescopes.code.tex
INPUT /usr/local/texlive/2021/texmf-dist/tex/generic/pgf/basiclayer/pgfcoregraphicstate.code.tex
INPUT /usr/local/texlive/2021/texmf-dist/tex/generic/pgf/basiclayer/pgfcoretransformations.code.tex
INPUT /usr/local/texlive/2021/texmf-dist/tex/generic/pgf/basiclayer/pgfcorequick.code.tex
INPUT /usr/local/texlive/2021/texmf-dist/tex/generic/pgf/basiclayer/pgfcoreobjects.code.tex
INPUT /usr/local/texlive/2021/texmf-dist/tex/generic/pgf/basiclayer/pgfcorepathprocessing.code.tex
INPUT /usr/local/texlive/2021/texmf-dist/tex/generic/pgf/basiclayer/pgfcorearrows.code.tex
INPUT /usr/local/texlive/2021/texmf-dist/tex/generic/pgf/basiclayer/pgfcoreshade.code.tex
INPUT /usr/local/texlive/2021/texmf-dist/tex/generic/pgf/basiclayer/pgfcoreimage.code.tex
INPUT /usr/local/texlive/2021/texmf-dist/tex/generic/pgf/basiclayer/pgfcoreexternal.code.tex
INPUT /usr/local/texlive/2021/texmf-dist/tex/generic/pgf/basiclayer/pgfcorelayers.code.tex
INPUT /usr/local/texlive/2021/texmf-dist/tex/generic/pgf/basiclayer/pgfcoretransparency.code.tex
INPUT /usr/local/texlive/2021/texmf-dist/tex/generic/pgf/basiclayer/pgfcorepatterns.code.tex
INPUT /usr/local/texlive/2021/texmf-dist/tex/generic/pgf/basiclayer/pgfcorerdf.code.tex
INPUT /usr/local/texlive/2021/texmf-dist/tex/generic/pgf/modules/pgfmoduleshapes.code.tex
INPUT /usr/local/texlive/2021/texmf-dist/tex/generic/pgf/modules/pgfmoduleplot.code.tex
INPUT /usr/local/texlive/2021/texmf-dist/tex/latex/pgf/compatibility/pgfcomp-version-0-65.sty
INPUT /usr/local/texlive/2021/texmf-dist/tex/latex/pgf/compatibility/pgfcomp-version-0-65.sty
INPUT /usr/local/texlive/2021/texmf-dist/tex/latex/pgf/compatibility/pgfcomp-version-0-65.sty
INPUT /usr/local/texlive/2021/texmf-dist/tex/latex/pgf/compatibility/pgfcomp-version-0-65.sty
INPUT /usr/local/texlive/2021/texmf-dist/tex/latex/pgf/compatibility/pgfcomp-version-0-65.sty
INPUT /usr/local/texlive/2021/texmf-dist/tex/latex/pgf/compatibility/pgfcomp-version-0-65.sty
INPUT /usr/local/texlive/2021/texmf-dist/tex/latex/pgf/compatibility/pgfcomp-version-0-65.sty
INPUT /usr/local/texlive/2021/texmf-dist/tex/latex/pgf/compatibility/pgfcomp-version-0-65.sty
INPUT /usr/local/texlive/2021/texmf-dist/tex/latex/pgf/compatibility/pgfcomp-version-0-65.sty
INPUT /usr/local/texlive/2021/texmf-dist/tex/latex/pgf/compatibility/pgfcomp-version-0-65.sty
INPUT /usr/local/texlive/2021/texmf-dist/tex/latex/pgf/compatibility/pgfcomp-version-0-65.sty
INPUT /usr/local/texlive/2021/texmf-dist/tex/latex/pgf/utilities/pgfrcs.sty
INPUT /usr/local/texlive/2021/texmf-dist/tex/latex/pgf/compatibility/pgfcomp-version-1-18.sty
INPUT /usr/local/texlive/2021/texmf-dist/tex/latex/pgf/compatibility/pgfcomp-version-1-18.sty
INPUT /usr/local/texlive/2021/texmf-dist/tex/latex/pgf/compatibility/pgfcomp-version-1-18.sty
INPUT /usr/local/texlive/2021/texmf-dist/tex/latex/pgf/compatibility/pgfcomp-version-1-18.sty
INPUT /usr/local/texlive/2021/texmf-dist/tex/latex/pgf/compatibility/pgfcomp-version-1-18.sty
INPUT /usr/local/texlive/2021/texmf-dist/tex/latex/pgf/compatibility/pgfcomp-version-1-18.sty
INPUT /usr/local/texlive/2021/texmf-dist/tex/latex/pgf/compatibility/pgfcomp-version-1-18.sty
INPUT /usr/local/texlive/2021/texmf-dist/tex/latex/pgf/compatibility/pgfcomp-version-1-18.sty
INPUT /usr/local/texlive/2021/texmf-dist/tex/latex/pgf/compatibility/pgfcomp-version-1-18.sty
INPUT /usr/local/texlive/2021/texmf-dist/tex/latex/pgf/compatibility/pgfcomp-version-1-18.sty
INPUT /usr/local/texlive/2021/texmf-dist/tex/latex/pgf/compatibility/pgfcomp-version-1-18.sty
INPUT /usr/local/texlive/2021/texmf-dist/tex/latex/pgf/utilities/pgfrcs.sty
INPUT /usr/local/texlive/2021/texmf-dist/tex/latex/pgf/utilities/pgffor.sty
INPUT /usr/local/texlive/2021/texmf-dist/tex/latex/pgf/utilities/pgffor.sty
INPUT /usr/local/texlive/2021/texmf-dist/tex/latex/pgf/utilities/pgffor.sty
INPUT /usr/local/texlive/2021/texmf-dist/tex/latex/pgf/utilities/pgffor.sty
INPUT /usr/local/texlive/2021/texmf-dist/tex/latex/pgf/utilities/pgffor.sty
INPUT /usr/local/texlive/2021/texmf-dist/tex/latex/pgf/utilities/pgffor.sty
INPUT /usr/local/texlive/2021/texmf-dist/tex/latex/pgf/utilities/pgffor.sty
INPUT /usr/local/texlive/2021/texmf-dist/tex/latex/pgf/utilities/pgffor.sty
INPUT /usr/local/texlive/2021/texmf-dist/tex/latex/pgf/utilities/pgffor.sty
INPUT /usr/local/texlive/2021/texmf-dist/tex/latex/pgf/utilities/pgffor.sty
INPUT /usr/local/texlive/2021/texmf-dist/tex/latex/pgf/utilities/pgffor.sty
INPUT /usr/local/texlive/2021/texmf-dist/tex/latex/pgf/utilities/pgfrcs.sty
INPUT /usr/local/texlive/2021/texmf-dist/tex/latex/pgf/utilities/pgfkeys.sty
INPUT /usr/local/texlive/2021/texmf-dist/tex/latex/pgf/utilities/pgfkeys.sty
INPUT /usr/local/texlive/2021/texmf-dist/tex/latex/pgf/utilities/pgfkeys.sty
INPUT /usr/local/texlive/2021/texmf-dist/tex/latex/pgf/utilities/pgfkeys.sty
INPUT /usr/local/texlive/2021/texmf-dist/tex/latex/pgf/utilities/pgfkeys.sty
INPUT /usr/local/texlive/2021/texmf-dist/tex/latex/pgf/utilities/pgfkeys.sty
INPUT /usr/local/texlive/2021/texmf-dist/tex/latex/pgf/utilities/pgfkeys.sty
INPUT /usr/local/texlive/2021/texmf-dist/tex/latex/pgf/utilities/pgfkeys.sty
INPUT /usr/local/texlive/2021/texmf-dist/tex/latex/pgf/utilities/pgfkeys.sty
INPUT /usr/local/texlive/2021/texmf-dist/tex/latex/pgf/utilities/pgfkeys.sty
INPUT /usr/local/texlive/2021/texmf-dist/tex/latex/pgf/utilities/pgfkeys.sty
INPUT /usr/local/texlive/2021/texmf-dist/tex/generic/pgf/utilities/pgfkeys.code.tex
INPUT /usr/local/texlive/2021/texmf-dist/tex/generic/pgf/utilities/pgfkeys.code.tex
INPUT /usr/local/texlive/2021/texmf-dist/tex/generic/pgf/utilities/pgfkeys.code.tex
INPUT /usr/local/texlive/2021/texmf-dist/tex/generic/pgf/utilities/pgfkeys.code.tex
INPUT /usr/local/texlive/2021/texmf-dist/tex/latex/pgf/math/pgfmath.sty
INPUT /usr/local/texlive/2021/texmf-dist/tex/latex/pgf/math/pgfmath.sty
INPUT /usr/local/texlive/2021/texmf-dist/tex/latex/pgf/math/pgfmath.sty
INPUT /usr/local/texlive/2021/texmf-dist/tex/latex/pgf/math/pgfmath.sty
INPUT /usr/local/texlive/2021/texmf-dist/tex/latex/pgf/math/pgfmath.sty
INPUT /usr/local/texlive/2021/texmf-dist/tex/latex/pgf/math/pgfmath.sty
INPUT /usr/local/texlive/2021/texmf-dist/tex/latex/pgf/math/pgfmath.sty
INPUT /usr/local/texlive/2021/texmf-dist/tex/latex/pgf/math/pgfmath.sty
INPUT /usr/local/texlive/2021/texmf-dist/tex/latex/pgf/math/pgfmath.sty
INPUT /usr/local/texlive/2021/texmf-dist/tex/latex/pgf/math/pgfmath.sty
INPUT /usr/local/texlive/2021/texmf-dist/tex/latex/pgf/math/pgfmath.sty
INPUT /usr/local/texlive/2021/texmf-dist/tex/latex/pgf/utilities/pgfrcs.sty
INPUT /usr/local/texlive/2021/texmf-dist/tex/latex/pgf/utilities/pgfkeys.sty
INPUT /usr/local/texlive/2021/texmf-dist/tex/generic/pgf/math/pgfmath.code.tex
INPUT /usr/local/texlive/2021/texmf-dist/tex/generic/pgf/math/pgfmath.code.tex
INPUT /usr/local/texlive/2021/texmf-dist/tex/generic/pgf/math/pgfmath.code.tex
INPUT /usr/local/texlive/2021/texmf-dist/tex/generic/pgf/math/pgfmath.code.tex
INPUT /usr/local/texlive/2021/texmf-dist/tex/generic/pgf/utilities/pgffor.code.tex
INPUT /usr/local/texlive/2021/texmf-dist/tex/generic/pgf/utilities/pgffor.code.tex
INPUT /usr/local/texlive/2021/texmf-dist/tex/generic/pgf/utilities/pgffor.code.tex
INPUT /usr/local/texlive/2021/texmf-dist/tex/generic/pgf/utilities/pgffor.code.tex
INPUT /usr/local/texlive/2021/texmf-dist/tex/generic/pgf/math/pgfmath.code.tex
INPUT /usr/local/texlive/2021/texmf-dist/tex/generic/pgf/frontendlayer/tikz/tikz.code.tex
INPUT /usr/local/texlive/2021/texmf-dist/tex/generic/pgf/frontendlayer/tikz/tikz.code.tex
INPUT /usr/local/texlive/2021/texmf-dist/tex/generic/pgf/frontendlayer/tikz/tikz.code.tex
INPUT /usr/local/texlive/2021/texmf-dist/tex/generic/pgf/frontendlayer/tikz/tikz.code.tex
INPUT /usr/local/texlive/2021/texmf-dist/tex/generic/pgf/libraries/pgflibraryplothandlers.code.tex
INPUT /usr/local/texlive/2021/texmf-dist/tex/generic/pgf/libraries/pgflibraryplothandlers.code.tex
INPUT /usr/local/texlive/2021/texmf-dist/tex/generic/pgf/modules/pgfmodulematrix.code.tex
INPUT /usr/local/texlive/2021/texmf-dist/tex/generic/pgf/frontendlayer/tikz/libraries/tikzlibrarytopaths.code.tex
INPUT /usr/local/texlive/2021/texmf-dist/tex/generic/pgf/frontendlayer/tikz/libraries/tikzlibrarytopaths.code.tex
INPUT /usr/local/texlive/2021/texmf-dist/tex/latex/xcolor/xcolor.sty
INPUT /usr/local/texlive/2021/texmf-dist/tex/latex/preprint/fullpage.sty
INPUT /usr/local/texlive/2021/texmf-dist/tex/latex/preprint/fullpage.sty
INPUT /usr/local/texlive/2021/texmf-dist/tex/latex/preprint/fullpage.sty
INPUT /usr/local/texlive/2021/texmf-dist/tex/latex/preprint/fullpage.sty
INPUT /usr/local/texlive/2021/texmf-dist/tex/latex/preprint/fullpage.sty
INPUT /usr/local/texlive/2021/texmf-dist/tex/latex/preprint/fullpage.sty
INPUT /usr/local/texlive/2021/texmf-dist/tex/latex/preprint/fullpage.sty
INPUT /usr/local/texlive/2021/texmf-dist/tex/latex/preprint/fullpage.sty
INPUT /usr/local/texlive/2021/texmf-dist/tex/latex/preprint/fullpage.sty
INPUT /usr/local/texlive/2021/texmf-dist/tex/latex/preprint/fullpage.sty
INPUT /usr/local/texlive/2021/texmf-dist/tex/latex/preprint/fullpage.sty
INPUT /usr/local/texlive/2021/texmf-dist/tex/latex/asymptote/asymptote.sty
INPUT /usr/local/texlive/2021/texmf-dist/tex/latex/asymptote/asymptote.sty
INPUT /usr/local/texlive/2021/texmf-dist/tex/latex/asymptote/asymptote.sty
INPUT /usr/local/texlive/2021/texmf-dist/tex/latex/asymptote/asymptote.sty
INPUT /usr/local/texlive/2021/texmf-dist/tex/latex/asymptote/asymptote.sty
INPUT /usr/local/texlive/2021/texmf-dist/tex/latex/asymptote/asymptote.sty
INPUT /usr/local/texlive/2021/texmf-dist/tex/latex/asymptote/asymptote.sty
INPUT /usr/local/texlive/2021/texmf-dist/tex/latex/asymptote/asymptote.sty
INPUT /usr/local/texlive/2021/texmf-dist/tex/latex/asymptote/asymptote.sty
INPUT /usr/local/texlive/2021/texmf-dist/tex/latex/asymptote/asymptote.sty
INPUT /usr/local/texlive/2021/texmf-dist/tex/latex/asymptote/asymptote.sty
INPUT ./abc.pre
INPUT abc.pre
INPUT ./abc.pre
INPUT abc.pre
INPUT /usr/local/texlive/2021/texmf-dist/tex/latex/graphics/keyval.sty
INPUT /usr/local/texlive/2021/texmf-dist/tex/latex/base/ifthen.sty
INPUT /usr/local/texlive/2021/texmf-dist/tex/latex/base/ifthen.sty
INPUT /usr/local/texlive/2021/texmf-dist/tex/latex/base/ifthen.sty
INPUT /usr/local/texlive/2021/texmf-dist/tex/latex/base/ifthen.sty
INPUT /usr/local/texlive/2021/texmf-dist/tex/latex/base/ifthen.sty
INPUT /usr/local/texlive/2021/texmf-dist/tex/latex/base/ifthen.sty
INPUT /usr/local/texlive/2021/texmf-dist/tex/latex/base/ifthen.sty
INPUT /usr/local/texlive/2021/texmf-dist/tex/latex/base/ifthen.sty
INPUT /usr/local/texlive/2021/texmf-dist/tex/latex/base/ifthen.sty
INPUT /usr/local/texlive/2021/texmf-dist/tex/latex/base/ifthen.sty
INPUT /usr/local/texlive/2021/texmf-dist/tex/latex/base/ifthen.sty
INPUT /usr/local/texlive/2021/texmf-dist/tex/latex/graphics/color.sty
INPUT /usr/local/texlive/2021/texmf-dist/tex/latex/graphics/graphicx.sty
INPUT /usr/local/texlive/2021/texmf-dist/tex/generic/iftex/ifpdf.sty
INPUT /usr/local/texlive/2021/texmf-dist/tex/generic/iftex/ifpdf.sty
INPUT /usr/local/texlive/2021/texmf-dist/tex/generic/iftex/ifpdf.sty
INPUT /usr/local/texlive/2021/texmf-dist/tex/generic/iftex/ifxetex.sty
INPUT /usr/local/texlive/2021/texmf-dist/tex/generic/iftex/ifxetex.sty
INPUT /usr/local/texlive/2021/texmf-dist/tex/generic/iftex/ifxetex.sty
INPUT /usr/local/texlive/2021/texmf-dist/tex/generic/iftex/ifxetex.sty
INPUT /usr/local/texlive/2021/texmf-dist/tex/generic/iftex/ifxetex.sty
INPUT /usr/local/texlive/2021/texmf-dist/tex/generic/iftex/ifxetex.sty
INPUT /usr/local/texlive/2021/texmf-dist/tex/generic/iftex/ifxetex.sty
INPUT /usr/local/texlive/2021/texmf-dist/tex/generic/iftex/ifxetex.sty
INPUT /usr/local/texlive/2021/texmf-dist/tex/generic/iftex/ifxetex.sty
INPUT /usr/local/texlive/2021/texmf-dist/tex/generic/iftex/ifxetex.sty
INPUT /usr/local/texlive/2021/texmf-dist/tex/generic/iftex/ifxetex.sty
INPUT /usr/local/texlive/2021/texmf-dist/tex/generic/iftex/ifxetex.sty
INPUT /usr/local/texlive/2021/texmf-dist/tex/generic/iftex/ifxetex.sty
INPUT /usr/local/texlive/2021/texmf-dist/tex/generic/iftex/iftex.sty
INPUT /usr/local/texlive/2021/texmf-dist/tex/generic/catchfile/catchfile.sty
INPUT /usr/local/texlive/2021/texmf-dist/tex/generic/catchfile/catchfile.sty
INPUT /usr/local/texlive/2021/texmf-dist/tex/generic/catchfile/catchfile.sty
INPUT /usr/local/texlive/2021/texmf-dist/tex/generic/catchfile/catchfile.sty
INPUT /usr/local/texlive/2021/texmf-dist/tex/generic/catchfile/catchfile.sty
INPUT /usr/local/texlive/2021/texmf-dist/tex/generic/catchfile/catchfile.sty
INPUT /usr/local/texlive/2021/texmf-dist/tex/generic/catchfile/catchfile.sty
INPUT /usr/local/texlive/2021/texmf-dist/tex/generic/catchfile/catchfile.sty
INPUT /usr/local/texlive/2021/texmf-dist/tex/generic/catchfile/catchfile.sty
INPUT /usr/local/texlive/2021/texmf-dist/tex/generic/catchfile/catchfile.sty
INPUT /usr/local/texlive/2021/texmf-dist/tex/generic/catchfile/catchfile.sty
INPUT /usr/local/texlive/2021/texmf-dist/tex/generic/catchfile/catchfile.sty
INPUT /usr/local/texlive/2021/texmf-dist/tex/generic/catchfile/catchfile.sty
INPUT /usr/local/texlive/2021/texmf-dist/tex/generic/infwarerr/infwarerr.sty
INPUT /usr/local/texlive/2021/texmf-dist/tex/generic/ltxcmds/ltxcmds.sty
INPUT /usr/local/texlive/2021/texmf-dist/tex/generic/etexcmds/etexcmds.sty
OUTPUT abc.pre
INPUT /usr/local/texlive/2021/texmf-dist/tex/latex/listings/listings.sty
INPUT /usr/local/texlive/2021/texmf-dist/tex/latex/listings/listings.sty
INPUT /usr/local/texlive/2021/texmf-dist/tex/latex/listings/listings.sty
INPUT /usr/local/texlive/2021/texmf-dist/tex/latex/listings/listings.sty
INPUT /usr/local/texlive/2021/texmf-dist/tex/latex/listings/listings.sty
INPUT /usr/local/texlive/2021/texmf-dist/tex/latex/listings/listings.sty
INPUT /usr/local/texlive/2021/texmf-dist/tex/latex/listings/listings.sty
INPUT /usr/local/texlive/2021/texmf-dist/tex/latex/listings/listings.sty
INPUT /usr/local/texlive/2021/texmf-dist/tex/latex/listings/listings.sty
INPUT /usr/local/texlive/2021/texmf-dist/tex/latex/listings/listings.sty
INPUT /usr/local/texlive/2021/texmf-dist/tex/latex/listings/listings.sty
INPUT /usr/local/texlive/2021/texmf-dist/tex/latex/graphics/keyval.sty
INPUT /usr/local/texlive/2021/texmf-dist/tex/latex/listings/lstmisc.sty
INPUT /usr/local/texlive/2021/texmf-dist/tex/latex/listings/lstmisc.sty
INPUT /usr/local/texlive/2021/texmf-dist/tex/latex/listings/lstmisc.sty
INPUT /usr/local/texlive/2021/texmf-dist/tex/latex/listings/lstmisc.sty
INPUT /usr/local/texlive/2021/texmf-dist/tex/latex/listings/listings.cfg
INPUT /usr/local/texlive/2021/texmf-dist/tex/latex/listings/listings.cfg
INPUT /usr/local/texlive/2021/texmf-dist/tex/latex/listings/listings.cfg
INPUT /usr/local/texlive/2021/texmf-dist/tex/latex/listings/listings.cfg
INPUT /usr/local/texlive/2021/texmf-dist/tex/latex/geometry/geometry.sty
INPUT /usr/local/texlive/2021/texmf-dist/tex/latex/geometry/geometry.sty
INPUT /usr/local/texlive/2021/texmf-dist/tex/latex/geometry/geometry.sty
INPUT /usr/local/texlive/2021/texmf-dist/tex/latex/geometry/geometry.sty
INPUT /usr/local/texlive/2021/texmf-dist/tex/latex/geometry/geometry.sty
INPUT /usr/local/texlive/2021/texmf-dist/tex/latex/geometry/geometry.sty
INPUT /usr/local/texlive/2021/texmf-dist/tex/latex/geometry/geometry.sty
INPUT /usr/local/texlive/2021/texmf-dist/tex/latex/geometry/geometry.sty
INPUT /usr/local/texlive/2021/texmf-dist/tex/latex/geometry/geometry.sty
INPUT /usr/local/texlive/2021/texmf-dist/tex/latex/geometry/geometry.sty
INPUT /usr/local/texlive/2021/texmf-dist/tex/latex/geometry/geometry.sty
INPUT /usr/local/texlive/2021/texmf-dist/tex/latex/graphics/keyval.sty
INPUT /usr/local/texlive/2021/texmf-dist/tex/generic/iftex/ifvtex.sty
INPUT /usr/local/texlive/2021/texmf-dist/tex/generic/iftex/ifvtex.sty
INPUT /usr/local/texlive/2021/texmf-dist/tex/generic/iftex/ifvtex.sty
INPUT /usr/local/texlive/2021/texmf-dist/tex/generic/iftex/ifvtex.sty
INPUT /usr/local/texlive/2021/texmf-dist/tex/generic/iftex/ifvtex.sty
INPUT /usr/local/texlive/2021/texmf-dist/tex/generic/iftex/ifvtex.sty
INPUT /usr/local/texlive/2021/texmf-dist/tex/generic/iftex/ifvtex.sty
INPUT /usr/local/texlive/2021/texmf-dist/tex/generic/iftex/ifvtex.sty
INPUT /usr/local/texlive/2021/texmf-dist/tex/generic/iftex/ifvtex.sty
INPUT /usr/local/texlive/2021/texmf-dist/tex/generic/iftex/ifvtex.sty
INPUT /usr/local/texlive/2021/texmf-dist/tex/generic/iftex/ifvtex.sty
INPUT /usr/local/texlive/2021/texmf-dist/tex/generic/iftex/iftex.sty
INPUT ./abc.aux
INPUT abc.aux
INPUT abc.aux
OUTPUT abc.aux
INPUT /usr/local/texlive/2021/texmf-dist/tex/context/base/mkii/supp-pdf.mkii
INPUT /usr/local/texlive/2021/texmf-dist/tex/context/base/mkii/supp-pdf.mkii
INPUT /usr/local/texlive/2021/texmf-dist/tex/context/base/mkii/supp-pdf.mkii
INPUT /usr/local/texlive/2021/texmf-dist/tex/context/base/mkii/supp-pdf.mkii
INPUT /usr/local/texlive/2021/texmf-dist/tex/latex/epstopdf-pkg/epstopdf-base.sty
INPUT /usr/local/texlive/2021/texmf-dist/tex/latex/epstopdf-pkg/epstopdf-base.sty
INPUT /usr/local/texlive/2021/texmf-dist/tex/latex/epstopdf-pkg/epstopdf-base.sty
INPUT /usr/local/texlive/2021/texmf-dist/tex/latex/epstopdf-pkg/epstopdf-base.sty
INPUT /usr/local/texlive/2021/texmf-dist/tex/latex/epstopdf-pkg/epstopdf-base.sty
INPUT /usr/local/texlive/2021/texmf-dist/tex/latex/epstopdf-pkg/epstopdf-base.sty
INPUT /usr/local/texlive/2021/texmf-dist/tex/latex/epstopdf-pkg/epstopdf-base.sty
INPUT /usr/local/texlive/2021/texmf-dist/tex/latex/epstopdf-pkg/epstopdf-base.sty
INPUT /usr/local/texlive/2021/texmf-dist/tex/latex/epstopdf-pkg/epstopdf-base.sty
INPUT /usr/local/texlive/2021/texmf-dist/tex/latex/epstopdf-pkg/epstopdf-base.sty
INPUT /usr/local/texlive/2021/texmf-dist/tex/latex/epstopdf-pkg/epstopdf-base.sty
INPUT /usr/local/texlive/2021/texmf-dist/tex/latex/latexconfig/epstopdf-sys.cfg
INPUT /usr/local/texlive/2021/texmf-dist/tex/latex/latexconfig/epstopdf-sys.cfg
INPUT /usr/local/texlive/2021/texmf-dist/tex/latex/latexconfig/epstopdf-sys.cfg
INPUT /usr/local/texlive/2021/texmf-dist/tex/latex/latexconfig/epstopdf-sys.cfg
INPUT /usr/local/texlive/2021/texmf-dist/tex/latex/graphics/graphicx.sty
INPUT /usr/local/texlive/2021/texmf-dist/tex/latex/hyperref/nameref.sty
INPUT /usr/local/texlive/2021/texmf-dist/tex/latex/hyperref/nameref.sty
INPUT /usr/local/texlive/2021/texmf-dist/tex/latex/hyperref/nameref.sty
INPUT /usr/local/texlive/2021/texmf-dist/tex/latex/hyperref/nameref.sty
INPUT /usr/local/texlive/2021/texmf-dist/tex/latex/hyperref/nameref.sty
INPUT /usr/local/texlive/2021/texmf-dist/tex/latex/hyperref/nameref.sty
INPUT /usr/local/texlive/2021/texmf-dist/tex/latex/hyperref/nameref.sty
INPUT /usr/local/texlive/2021/texmf-dist/tex/latex/hyperref/nameref.sty
INPUT /usr/local/texlive/2021/texmf-dist/tex/latex/hyperref/nameref.sty
INPUT /usr/local/texlive/2021/texmf-dist/tex/latex/hyperref/nameref.sty
INPUT /usr/local/texlive/2021/texmf-dist/tex/latex/hyperref/nameref.sty
INPUT /usr/local/texlive/2021/texmf-dist/tex/latex/refcount/refcount.sty
INPUT /usr/local/texlive/2021/texmf-dist/tex/latex/refcount/refcount.sty
INPUT /usr/local/texlive/2021/texmf-dist/tex/latex/refcount/refcount.sty
INPUT /usr/local/texlive/2021/texmf-dist/tex/latex/refcount/refcount.sty
INPUT /usr/local/texlive/2021/texmf-dist/tex/latex/refcount/refcount.sty
INPUT /usr/local/texlive/2021/texmf-dist/tex/latex/refcount/refcount.sty
INPUT /usr/local/texlive/2021/texmf-dist/tex/latex/refcount/refcount.sty
INPUT /usr/local/texlive/2021/texmf-dist/tex/latex/refcount/refcount.sty
INPUT /usr/local/texlive/2021/texmf-dist/tex/latex/refcount/refcount.sty
INPUT /usr/local/texlive/2021/texmf-dist/tex/latex/refcount/refcount.sty
INPUT /usr/local/texlive/2021/texmf-dist/tex/latex/refcount/refcount.sty
INPUT /usr/local/texlive/2021/texmf-dist/tex/generic/ltxcmds/ltxcmds.sty
INPUT /usr/local/texlive/2021/texmf-dist/tex/generic/infwarerr/infwarerr.sty
INPUT /usr/local/texlive/2021/texmf-dist/tex/generic/gettitlestring/gettitlestring.sty
INPUT /usr/local/texlive/2021/texmf-dist/tex/generic/gettitlestring/gettitlestring.sty
INPUT /usr/local/texlive/2021/texmf-dist/tex/generic/gettitlestring/gettitlestring.sty
INPUT /usr/local/texlive/2021/texmf-dist/tex/generic/gettitlestring/gettitlestring.sty
INPUT /usr/local/texlive/2021/texmf-dist/tex/generic/gettitlestring/gettitlestring.sty
INPUT /usr/local/texlive/2021/texmf-dist/tex/generic/gettitlestring/gettitlestring.sty
INPUT /usr/local/texlive/2021/texmf-dist/tex/generic/gettitlestring/gettitlestring.sty
INPUT /usr/local/texlive/2021/texmf-dist/tex/generic/gettitlestring/gettitlestring.sty
INPUT /usr/local/texlive/2021/texmf-dist/tex/generic/gettitlestring/gettitlestring.sty
INPUT /usr/local/texlive/2021/texmf-dist/tex/generic/gettitlestring/gettitlestring.sty
INPUT /usr/local/texlive/2021/texmf-dist/tex/generic/gettitlestring/gettitlestring.sty
INPUT /usr/local/texlive/2021/texmf-dist/tex/latex/kvoptions/kvoptions.sty
INPUT /usr/local/texlive/2021/texmf-dist/tex/generic/ltxcmds/ltxcmds.sty
INPUT ./abc.out
INPUT abc.out
INPUT ./abc.out
INPUT abc.out
INPUT ./abc.out
INPUT abc.out
INPUT ./abc.out
INPUT abc.out
INPUT ./abc.out
INPUT ./abc.out
OUTPUT abc.out
OUTPUT abc.pdf
INPUT /usr/local/texlive/2021/texmf-dist/fonts/map/fontname/texfonts.map
INPUT /usr/local/texlive/2021/texmf-dist/fonts/tfm/public/amsfonts/cmextra/cmex7.tfm
INPUT /usr/local/texlive/2021/texmf-dist/fonts/tfm/public/amsfonts/cmextra/cmex7.tfm
INPUT /usr/local/texlive/2021/texmf-dist/tex/latex/amsfonts/umsa.fd
INPUT /usr/local/texlive/2021/texmf-dist/tex/latex/amsfonts/umsa.fd
INPUT /usr/local/texlive/2021/texmf-dist/tex/latex/amsfonts/umsa.fd
INPUT /usr/local/texlive/2021/texmf-dist/tex/latex/amsfonts/umsa.fd
INPUT /usr/local/texlive/2021/texmf-dist/fonts/tfm/public/amsfonts/symbols/msam10.tfm
INPUT /usr/local/texlive/2021/texmf-dist/fonts/tfm/public/amsfonts/symbols/msam7.tfm
INPUT /usr/local/texlive/2021/texmf-dist/fonts/tfm/public/amsfonts/symbols/msam5.tfm
INPUT /usr/local/texlive/2021/texmf-dist/tex/latex/amsfonts/umsb.fd
INPUT /usr/local/texlive/2021/texmf-dist/tex/latex/amsfonts/umsb.fd
INPUT /usr/local/texlive/2021/texmf-dist/tex/latex/amsfonts/umsb.fd
INPUT /usr/local/texlive/2021/texmf-dist/tex/latex/amsfonts/umsb.fd
INPUT /usr/local/texlive/2021/texmf-dist/fonts/tfm/public/amsfonts/symbols/msbm10.tfm
INPUT /usr/local/texlive/2021/texmf-dist/fonts/tfm/public/amsfonts/symbols/msbm7.tfm
INPUT /usr/local/texlive/2021/texmf-dist/fonts/tfm/public/amsfonts/symbols/msbm5.tfm
INPUT /usr/local/texlive/2021/texmf-var/fonts/map/pdftex/updmap/pdftex.map
INPUT abc.aux
INPUT ./abc.out
INPUT ./abc.out
INPUT /usr/local/texlive/2021/texmf-dist/fonts/type1/public/amsfonts/cm/cmmi10.pfb
INPUT /usr/local/texlive/2021/texmf-dist/fonts/type1/public/amsfonts/cm/cmr10.pfb
