		[38;5;40m[38;5;200m[/Users/aaa/myfile/bitbucket/stackproject/try-parse-haskell][0m
ParseOk
    ( Module
        ( SrcSpanInfo
            { srcInfoSpan = SrcSpan "src/Main.hs" 1 1 13 1
            , srcInfoPoints =
                [ SrcSpan "src/Main.hs" 1 1 1 1
                , SrcSpan "src/Main.hs" 1 1 1 1
                , SrcSpan "src/Main.hs" 3 1 3 1
                , SrcSpan "src/Main.hs" 4 1 4 1
                , SrcSpan "src/Main.hs" 7 1 7 1
                , SrcSpan "src/Main.hs" 8 1 8 1
                , SrcSpan "src/Main.hs" 12 1 12 1
                , SrcSpan "src/Main.hs" 13 1 13 1
                , SrcSpan "src/Main.hs" 13 1 13 1
                ]
            }
        )
        ( Just
            ( ModuleHead
                ( SrcSpanInfo
                    { srcInfoSpan = SrcSpan "src/Main.hs" 1 1 1 18
                    , srcInfoPoints =
                        [ SrcSpan "src/Main.hs" 1 1 1 7
                        , SrcSpan "src/Main.hs" 1 13 1 18
                        ]
                    }
                )
                ( ModuleName
                    ( SrcSpanInfo
                        { srcInfoSpan = SrcSpan "src/Main.hs" 1 8 1 12
                        , srcInfoPoints = []
                        }
                    ) "Main"
                ) Nothing Nothing
            )
        ) []
        [ ImportDecl
            { importAnn = SrcSpanInfo
                { srcInfoSpan = SrcSpan "src/Main.hs" 3 1 3 29
                , srcInfoPoints =
                    [ SrcSpan "src/Main.hs" 3 1 3 7 ]
                }
            , importModule = ModuleName
                ( SrcSpanInfo
                    { srcInfoSpan = SrcSpan "src/Main.hs" 3 8 3 29
                    , srcInfoPoints = []
                    }
                ) "Language.Haskell.Exts"
            , importQualified = False
            , importSrc = False
            , importSafe = False
            , importPkg = Nothing
            , importAs = Nothing
            , importSpecs = Nothing
            }
        , ImportDecl
            { importAnn = SrcSpanInfo
                { srcInfoSpan = SrcSpan "src/Main.hs" 4 1 4 18
                , srcInfoPoints =
                    [ SrcSpan "src/Main.hs" 4 1 4 7 ]
                }
            , importModule = ModuleName
                ( SrcSpanInfo
                    { srcInfoSpan = SrcSpan "src/Main.hs" 4 8 4 18
                    , srcInfoPoints = []
                    }
                ) "AronModule"
            , importQualified = False
            , importSrc = False
            , importSafe = False
            , importPkg = Nothing
            , importAs = Nothing
            , importSpecs = Nothing
            }
        ]
        [ TypeSig
            ( SrcSpanInfo
                { srcInfoSpan = SrcSpan "src/Main.hs" 7 1 7 19
                , srcInfoPoints =
                    [ SrcSpan "src/Main.hs" 7 4 7 6 ]
                }
            )
            [ Ident
                ( SrcSpanInfo
                    { srcInfoSpan = SrcSpan "src/Main.hs" 7 1 7 4
                    , srcInfoPoints = []
                    }
                ) "fun"
            ]
            ( TyFun
                ( SrcSpanInfo
                    { srcInfoSpan = SrcSpan "src/Main.hs" 7 6 7 19
                    , srcInfoPoints =
                        [ SrcSpan "src/Main.hs" 7 10 7 12 ]
                    }
                )
                ( TyCon
                    ( SrcSpanInfo
                        { srcInfoSpan = SrcSpan "src/Main.hs" 7 6 7 9
                        , srcInfoPoints = []
                        }
                    )
                    ( UnQual
                        ( SrcSpanInfo
                            { srcInfoSpan = SrcSpan "src/Main.hs" 7 6 7 9
                            , srcInfoPoints = []
                            }
                        )
                        ( Ident
                            ( SrcSpanInfo
                                { srcInfoSpan = SrcSpan "src/Main.hs" 7 6 7 9
                                , srcInfoPoints = []
                                }
                            ) "Int"
                        )
                    )
                )
                ( TyCon
                    ( SrcSpanInfo
                        { srcInfoSpan = SrcSpan "src/Main.hs" 7 13 7 19
                        , srcInfoPoints = []
                        }
                    )
                    ( UnQual
                        ( SrcSpanInfo
                            { srcInfoSpan = SrcSpan "src/Main.hs" 7 13 7 19
                            , srcInfoPoints = []
                            }
                        )
                        ( Ident
                            ( SrcSpanInfo
                                { srcInfoSpan = SrcSpan "src/Main.hs" 7 13 7 19
                                , srcInfoPoints = []
                                }
                            ) "String"
                        )
                    )
                )
            )
        , FunBind
            ( SrcSpanInfo
                { srcInfoSpan = SrcSpan "src/Main.hs" 8 1 10 16
                , srcInfoPoints =
                    [ SrcSpan "src/Main.hs" 9 3 9 8 ]
                }
            )
            [ Match
                ( SrcSpanInfo
                    { srcInfoSpan = SrcSpan "src/Main.hs" 8 1 10 16
                    , srcInfoPoints =
                        [ SrcSpan "src/Main.hs" 9 3 9 8 ]
                    }
                )
                ( Ident
                    ( SrcSpanInfo
                        { srcInfoSpan = SrcSpan "src/Main.hs" 8 1 8 4
                        , srcInfoPoints = []
                        }
                    ) "fun"
                )
                [ PVar
                    ( SrcSpanInfo
                        { srcInfoSpan = SrcSpan "src/Main.hs" 8 5 8 6
                        , srcInfoPoints = []
                        }
                    )
                    ( Ident
                        ( SrcSpanInfo
                            { srcInfoSpan = SrcSpan "src/Main.hs" 8 5 8 6
                            , srcInfoPoints = []
                            }
                        ) "x"
                    )
                ]
                ( UnGuardedRhs
                    ( SrcSpanInfo
                        { srcInfoSpan = SrcSpan "src/Main.hs" 8 7 8 19
                        , srcInfoPoints =
                            [ SrcSpan "src/Main.hs" 8 7 8 8 ]
                        }
                    )
                    ( InfixApp
                        ( SrcSpanInfo
                            { srcInfoSpan = SrcSpan "src/Main.hs" 8 9 8 19
                            , srcInfoPoints = []
                            }
                        )
                        ( Var
                            ( SrcSpanInfo
                                { srcInfoSpan = SrcSpan "src/Main.hs" 8 9 8 13
                                , srcInfoPoints = []
                                }
                            )
                            ( UnQual
                                ( SrcSpanInfo
                                    { srcInfoSpan = SrcSpan "src/Main.hs" 8 9 8 13
                                    , srcInfoPoints = []
                                    }
                                )
                                ( Ident
                                    ( SrcSpanInfo
                                        { srcInfoSpan = SrcSpan "src/Main.hs" 8 9 8 13
                                        , srcInfoPoints = []
                                        }
                                    ) "show"
                                )
                            )
                        )
                        ( QVarOp
                            ( SrcSpanInfo
                                { srcInfoSpan = SrcSpan "src/Main.hs" 8 14 8 15
                                , srcInfoPoints = []
                                }
                            )
                            ( UnQual
                                ( SrcSpanInfo
                                    { srcInfoSpan = SrcSpan "src/Main.hs" 8 14 8 15
                                    , srcInfoPoints = []
                                    }
                                )
                                ( Symbol
                                    ( SrcSpanInfo
                                        { srcInfoSpan = SrcSpan "src/Main.hs" 8 14 8 15
                                        , srcInfoPoints = []
                                        }
                                    ) "$"
                                )
                            )
                        )
                        ( App
                            ( SrcSpanInfo
                                { srcInfoSpan = SrcSpan "src/Main.hs" 8 16 8 19
                                , srcInfoPoints = []
                                }
                            )
                            ( Var
                                ( SrcSpanInfo
                                    { srcInfoSpan = SrcSpan "src/Main.hs" 8 16 8 17
                                    , srcInfoPoints = []
                                    }
                                )
                                ( UnQual
                                    ( SrcSpanInfo
                                        { srcInfoSpan = SrcSpan "src/Main.hs" 8 16 8 17
                                        , srcInfoPoints = []
                                        }
                                    )
                                    ( Ident
                                        ( SrcSpanInfo
                                            { srcInfoSpan = SrcSpan "src/Main.hs" 8 16 8 17
                                            , srcInfoPoints = []
                                            }
                                        ) "g"
                                    )
                                )
                            )
                            ( Var
                                ( SrcSpanInfo
                                    { srcInfoSpan = SrcSpan "src/Main.hs" 8 18 8 19
                                    , srcInfoPoints = []
                                    }
                                )
                                ( UnQual
                                    ( SrcSpanInfo
                                        { srcInfoSpan = SrcSpan "src/Main.hs" 8 18 8 19
                                        , srcInfoPoints = []
                                        }
                                    )
                                    ( Ident
                                        ( SrcSpanInfo
                                            { srcInfoSpan = SrcSpan "src/Main.hs" 8 18 8 19
                                            , srcInfoPoints = []
                                            }
                                        ) "x"
                                    )
                                )
                            )
                        )
                    )
                )
                ( Just
                    ( BDecls
                        ( SrcSpanInfo
                            { srcInfoSpan = SrcSpan "src/Main.hs" 10 5 10 16
                            , srcInfoPoints =
                                [ SrcSpan "src/Main.hs" 10 5 10 5
                                , SrcSpan "src/Main.hs" 12 1 12 0
                                ]
                            }
                        )
                        [ FunBind
                            ( SrcSpanInfo
                                { srcInfoSpan = SrcSpan "src/Main.hs" 10 5 10 16
                                , srcInfoPoints = []
                                }
                            )
                            [ Match
                                ( SrcSpanInfo
                                    { srcInfoSpan = SrcSpan "src/Main.hs" 10 5 10 16
                                    , srcInfoPoints = []
                                    }
                                )
                                ( Ident
                                    ( SrcSpanInfo
                                        { srcInfoSpan = SrcSpan "src/Main.hs" 10 5 10 6
                                        , srcInfoPoints = []
                                        }
                                    ) "g"
                                )
                                [ PVar
                                    ( SrcSpanInfo
                                        { srcInfoSpan = SrcSpan "src/Main.hs" 10 7 10 8
                                        , srcInfoPoints = []
                                        }
                                    )
                                    ( Ident
                                        ( SrcSpanInfo
                                            { srcInfoSpan = SrcSpan "src/Main.hs" 10 7 10 8
                                            , srcInfoPoints = []
                                            }
                                        ) "x"
                                    )
                                ]
                                ( UnGuardedRhs
                                    ( SrcSpanInfo
                                        { srcInfoSpan = SrcSpan "src/Main.hs" 10 9 10 16
                                        , srcInfoPoints =
                                            [ SrcSpan "src/Main.hs" 10 9 10 10 ]
                                        }
                                    )
                                    ( InfixApp
                                        ( SrcSpanInfo
                                            { srcInfoSpan = SrcSpan "src/Main.hs" 10 11 10 16
                                            , srcInfoPoints = []
                                            }
                                        )
                                        ( Var
                                            ( SrcSpanInfo
                                                { srcInfoSpan = SrcSpan "src/Main.hs" 10 11 10 12
                                                , srcInfoPoints = []
                                                }
                                            )
                                            ( UnQual
                                                ( SrcSpanInfo
                                                    { srcInfoSpan = SrcSpan "src/Main.hs" 10 11 10 12
                                                    , srcInfoPoints = []
                                                    }
                                                )
                                                ( Ident
                                                    ( SrcSpanInfo
                                                        { srcInfoSpan = SrcSpan "src/Main.hs" 10 11 10 12
                                                        , srcInfoPoints = []
                                                        }
                                                    ) "x"
                                                )
                                            )
                                        )
                                        ( QVarOp
                                            ( SrcSpanInfo
                                                { srcInfoSpan = SrcSpan "src/Main.hs" 10 13 10 14
                                                , srcInfoPoints = []
                                                }
                                            )
                                            ( UnQual
                                                ( SrcSpanInfo
                                                    { srcInfoSpan = SrcSpan "src/Main.hs" 10 13 10 14
                                                    , srcInfoPoints = []
                                                    }
                                                )
                                                ( Symbol
                                                    ( SrcSpanInfo
                                                        { srcInfoSpan = SrcSpan "src/Main.hs" 10 13 10 14
                                                        , srcInfoPoints = []
                                                        }
                                                    ) "+"
                                                )
                                            )
                                        )
                                        ( Lit
                                            ( SrcSpanInfo
                                                { srcInfoSpan = SrcSpan "src/Main.hs" 10 15 10 16
                                                , srcInfoPoints = []
                                                }
                                            )
                                            ( Int
                                                ( SrcSpanInfo
                                                    { srcInfoSpan = SrcSpan "src/Main.hs" 10 15 10 16
                                                    , srcInfoPoints = []
                                                    }
                                                ) 1 "1"
                                            )
                                        )
                                    )
                                ) Nothing
                            ]
                        ]
                    )
                )
            ]
        , PatBind
            ( SrcSpanInfo
                { srcInfoSpan = SrcSpan "src/Main.hs" 12 1 12 39
                , srcInfoPoints = []
                }
            )
            ( PVar
                ( SrcSpanInfo
                    { srcInfoSpan = SrcSpan "src/Main.hs" 12 1 12 5
                    , srcInfoPoints = []
                    }
                )
                ( Ident
                    ( SrcSpanInfo
                        { srcInfoSpan = SrcSpan "src/Main.hs" 12 1 12 5
                        , srcInfoPoints = []
                        }
                    ) "main"
                )
            )
            ( UnGuardedRhs
                ( SrcSpanInfo
                    { srcInfoSpan = SrcSpan "src/Main.hs" 12 6 12 39
                    , srcInfoPoints =
                        [ SrcSpan "src/Main.hs" 12 6 12 7 ]
                    }
                )
                ( InfixApp
                    ( SrcSpanInfo
                        { srcInfoSpan = SrcSpan "src/Main.hs" 12 8 12 39
                        , srcInfoPoints = []
                        }
                    )
                    ( Var
                        ( SrcSpanInfo
                            { srcInfoSpan = SrcSpan "src/Main.hs" 12 8 12 11
                            , srcInfoPoints = []
                            }
                        )
                        ( UnQual
                            ( SrcSpanInfo
                                { srcInfoSpan = SrcSpan "src/Main.hs" 12 8 12 11
                                , srcInfoPoints = []
                                }
                            )
                            ( Ident
                                ( SrcSpanInfo
                                    { srcInfoSpan = SrcSpan "src/Main.hs" 12 8 12 11
                                    , srcInfoPoints = []
                                    }
                                ) "pre"
                            )
                        )
                    )
                    ( QVarOp
                        ( SrcSpanInfo
                            { srcInfoSpan = SrcSpan "src/Main.hs" 12 12 12 15
                            , srcInfoPoints = []
                            }
                        )
                        ( UnQual
                            ( SrcSpanInfo
                                { srcInfoSpan = SrcSpan "src/Main.hs" 12 12 12 15
                                , srcInfoPoints = []
                                }
                            )
                            ( Symbol
                                ( SrcSpanInfo
                                    { srcInfoSpan = SrcSpan "src/Main.hs" 12 12 12 15
                                    , srcInfoPoints = []
                                    }
                                ) "=<<"
                            )
                        )
                    )
                    ( App
                        ( SrcSpanInfo
                            { srcInfoSpan = SrcSpan "src/Main.hs" 12 16 12 39
                            , srcInfoPoints = []
                            }
                        )
                        ( Var
                            ( SrcSpanInfo
                                { srcInfoSpan = SrcSpan "src/Main.hs" 12 16 12 25
                                , srcInfoPoints = []
                                }
                            )
                            ( UnQual
                                ( SrcSpanInfo
                                    { srcInfoSpan = SrcSpan "src/Main.hs" 12 16 12 25
                                    , srcInfoPoints = []
                                    }
                                )
                                ( Ident
                                    ( SrcSpanInfo
                                        { srcInfoSpan = SrcSpan "src/Main.hs" 12 16 12 25
                                        , srcInfoPoints = []
                                        }
                                    ) "parseFile"
                                )
                            )
                        )
                        ( Lit
                            ( SrcSpanInfo
                                { srcInfoSpan = SrcSpan "src/Main.hs" 12 26 12 39
                                , srcInfoPoints = []
                                }
                            )
                            ( String
                                ( SrcSpanInfo
                                    { srcInfoSpan = SrcSpan "src/Main.hs" 12 26 12 39
                                    , srcInfoPoints = []
                                    }
                                ) "src/Main.hs" "src/Main.hs"
                            )
                        )
                    )
                )
            ) Nothing
        ]
    )
