0 sec = Mon 29 Apr 2024 10:28:38 PDT
0 sec = Mon 29 Apr 2024 10:28:48 PDT
0 sec = Mon 29 Apr 2024 10:30:39 PDT
1714411936 sec = Mon 29 Apr 2024 10:32:17 PDT
1714411946 sec = Mon 29 Apr 2024 10:32:26 PDT
1714412136 sec = Mon 29 Apr 2024 10:35:36 PDT
1714412145 sec = Mon 29 Apr 2024 10:35:45 PDT
1 sec = Mon 29 Apr 2024 10:42:57 PDT
15 sec = Mon 29 Apr 2024 10:52:09 PDT
56 sec = Mon 29 Apr 2024 10:53:19 PDT
8 sec = Mon 29 Apr 2024 10:53:36 PDT
11 sec = Mon 29 Apr 2024 11:09:30 PDT
9 sec = Mon 29 Apr 2024 11:12:22 PDT
8 sec = Mon 29 Apr 2024 11:20:07 PDT
8 sec = Mon 29 Apr 2024 11:20:34 PDT
6 sec = Tue 30 Apr 2024 11:30:55 PDT
9 sec = Wed  1 May 2024 00:08:55 PDT
8 sec = Wed  1 May 2024 00:47:28 PDT
13 sec = Wed  1 May 2024 22:36:10 PDT
47 sec = Wed  1 May 2024 23:39:52 PDT
9 sec = Sun  5 May 2024 12:00:24 PDT
8 sec = Sun  5 May 2024 12:01:44 PDT
8 sec = Sun  5 May 2024 12:03:38 PDT
93 sec = Sun  5 May 2024 22:50:52 PDT
8 sec = Sun  5 May 2024 23:11:41 PDT
1 sec = Sun  5 May 2024 23:13:03 PDT
1 sec = Sun  5 May 2024 23:13:14 PDT
7 sec = Mon  6 May 2024 00:37:57 PDT
7 sec = Mon  6 May 2024 00:39:27 PDT
11 sec = Mon  6 May 2024 00:43:26 PDT
9 sec = Mon  6 May 2024 00:45:34 PDT
9 sec = Mon  6 May 2024 00:46:15 PDT
8 sec = Mon  6 May 2024 00:48:16 PDT
52 sec = Mon  6 May 2024 01:08:17 PDT
12 sec = Mon  6 May 2024 01:11:02 PDT
2 sec = Mon  6 May 2024 01:11:15 PDT
10 sec = Mon  6 May 2024 01:11:50 PDT
1 sec = Mon  6 May 2024 01:11:56 PDT
10 sec = Mon  6 May 2024 01:17:01 PDT
13 sec = Mon  6 May 2024 01:27:36 PDT
10 sec = Mon  6 May 2024 01:28:17 PDT
12 sec = Mon  6 May 2024 10:08:57 PDT
